QC/QC_lab/TEK00024.CSV

Model,TBS1102C
Firmware Version,v1.29.30

Point Format,Y
Horizontal Units,S
Horizontal Scale,1e-05
Sample Interval,8e-08
Filter Frequency,2e+08
Record Length,2000
Gating,0.0% to 100.0%
Probe Attenuation,1
Vertical Units,V
Vertical Offset,0
Vertical Scale,0.05
Label,
TIME,CH1
-8.000e-05,0.29
-7.992e-05,0.29
-7.984e-05,0.29
-7.976e-05,0.29
-7.968e-05,0.29
-7.960e-05,0.29
-7.952e-05,0.29
-7.944e-05,0.292
-7.936e-05,0.292
-7.928e-05,0.29
-7.920e-05,0.292
-7.912e-05,0.29
-7.904e-05,0.292
-7.896e-05,0.292
-7.888e-05,0.292
-7.880e-05,0.292
-7.872e-05,0.292
-7.864e-05,0.294
-7.856e-05,0.29
-7.848e-05,0.294
-7.840e-05,0.294
-7.832e-05,0.298
-7.824e-05,0.294
-7.816e-05,0.296
-7.808e-05,0.296
-7.800e-05,0.296
-7.792e-05,0.296
-7.784e-05,0.296
-7.776e-05,0.296
-7.768e-05,0.296
-7.760e-05,0.296
-7.752e-05,0.296
-7.744e-05,0.296
-7.736e-05,0.294
-7.728e-05,0.298
-7.720e-05,0.3
-7.712e-05,0.298
-7.704e-05,0.296
-7.696e-05,0.298
-7.688e-05,0.298
-7.680e-05,0.298
-7.672e-05,0.298
-7.664e-05,0.298
-7.656e-05,0.298
-7.648e-05,0.298
-7.640e-05,0.298
-7.632e-05,0.298
-7.624e-05,0.298
-7.616e-05,0.3
-7.608e-05,0.298
-7.600e-05,0.298
-7.592e-05,0.296
-7.584e-05,0.298
-7.576e-05,0.298
-7.568e-05,0.298
-7.560e-05,0.298
-7.552e-05,0.298
-7.544e-05,0.298
-7.536e-05,0.298
-7.528e-05,0.298
-7.520e-05,0.298
-7.512e-05,0.296
-7.504e-05,0.298
-7.496e-05,0.298
-7.488e-05,0.296
-7.480e-05,0.296
-7.472e-05,0.294
-7.464e-05,0.296
-7.456e-05,0.294
-7.448e-05,0.296
-7.440e-05,0.296
-7.432e-05,0.294
-7.424e-05,0.294
-7.416e-05,0.294
-7.408e-05,0.294
-7.400e-05,0.294
-7.392e-05,0.294
-7.384e-05,0.294
-7.376e-05,0.296
-7.368e-05,0.294
-7.360e-05,0.296
-7.352e-05,0.296
-7.344e-05,0.296
-7.336e-05,0.296
-7.328e-05,0.296
-7.320e-05,0.296
-7.312e-05,0.298
-7.304e-05,0.298
-7.296e-05,0.296
-7.288e-05,0.296
-7.280e-05,0.298
-7.272e-05,0.298
-7.264e-05,0.298
-7.256e-05,0.3
-7.248e-05,0.3
-7.240e-05,0.302
-7.232e-05,0.302
-7.224e-05,0.302
-7.216e-05,0.302
-7.208e-05,0.302
-7.200e-05,0.304
-7.192e-05,0.304
-7.184e-05,0.304
-7.176e-05,0.304
-7.168e-05,0.304
-7.160e-05,0.306
-7.152e-05,0.306
-7.144e-05,0.306
-7.136e-05,0.306
-7.128e-05,0.304
-7.120e-05,0.302
-7.112e-05,0.302
-7.104e-05,0.304
-7.096e-05,0.302
-7.088e-05,0.302
-7.080e-05,0.298
-7.072e-05,0.3
-7.064e-05,0.3
-7.056e-05,0.302
-7.048e-05,0.3
-7.040e-05,0.302
-7.032e-05,0.3
-7.024e-05,0.304
-7.016e-05,0.302
-7.008e-05,0.3
-7.000e-05,0.298
-6.992e-05,0.3
-6.984e-05,0.304
-6.976e-05,0.298
-6.968e-05,0.3
-6.960e-05,0.3
-6.952e-05,0.302
-6.944e-05,0.3
-6.936e-05,0.3
-6.928e-05,0.3
-6.920e-05,0.302
-6.912e-05,0.302
-6.904e-05,0.3
-6.896e-05,0.302
-6.888e-05,0.302
-6.880e-05,0.302
-6.872e-05,0.302
-6.864e-05,0.302
-6.856e-05,0.302
-6.848e-05,0.302
-6.840e-05,0.302
-6.832e-05,0.3
-6.824e-05,0.3
-6.816e-05,0.302
-6.808e-05,0.302
-6.800e-05,0.302
-6.792e-05,0.3
-6.784e-05,0.302
-6.776e-05,0.298
-6.768e-05,0.302
-6.760e-05,0.3
-6.752e-05,0.302
-6.744e-05,0.3
-6.736e-05,0.302
-6.728e-05,0.304
-6.720e-05,0.3
-6.712e-05,0.304
-6.704e-05,0.302
-6.696e-05,0.302
-6.688e-05,0.302
-6.680e-05,0.302
-6.672e-05,0.304
-6.664e-05,0.302
-6.656e-05,0.304
-6.648e-05,0.304
-6.640e-05,0.304
-6.632e-05,0.304
-6.624e-05,0.304
-6.616e-05,0.302
-6.608e-05,0.304
-6.600e-05,0.304
-6.592e-05,0.302
-6.584e-05,0.304
-6.576e-05,0.304
-6.568e-05,0.304
-6.560e-05,0.306
-6.552e-05,0.308
-6.544e-05,0.308
-6.536e-05,0.308
-6.528e-05,0.31
-6.520e-05,0.312
-6.512e-05,0.31
-6.504e-05,0.31
-6.496e-05,0.312
-6.488e-05,0.312
-6.480e-05,0.314
-6.472e-05,0.314
-6.464e-05,0.314
-6.456e-05,0.316
-6.448e-05,0.314
-6.440e-05,0.316
-6.432e-05,0.316
-6.424e-05,0.316
-6.416e-05,0.318
-6.408e-05,0.316
-6.400e-05,0.318
-6.392e-05,0.318
-6.384e-05,0.318
-6.376e-05,0.318
-6.368e-05,0.318
-6.360e-05,0.326
-6.352e-05,0.32
-6.344e-05,0.318
-6.336e-05,0.318
-6.328e-05,0.32
-6.320e-05,0.32
-6.312e-05,0.32
-6.304e-05,0.32
-6.296e-05,0.32
-6.288e-05,0.32
-6.280e-05,0.32
-6.272e-05,0.32
-6.264e-05,0.318
-6.256e-05,0.322
-6.248e-05,0.324
-6.240e-05,0.322
-6.232e-05,0.32
-6.224e-05,0.322
-6.216e-05,0.324
-6.208e-05,0.324
-6.200e-05,0.324
-6.192e-05,0.322
-6.184e-05,0.322
-6.176e-05,0.324
-6.168e-05,0.322
-6.160e-05,0.322
-6.152e-05,0.318
-6.144e-05,0.318
-6.136e-05,0.318
-6.128e-05,0.316
-6.120e-05,0.314
-6.112e-05,0.312
-6.104e-05,0.31
-6.096e-05,0.31
-6.088e-05,0.308
-6.080e-05,0.306
-6.072e-05,0.306
-6.064e-05,0.306
-6.056e-05,0.304
-6.048e-05,0.304
-6.040e-05,0.304
-6.032e-05,0.304
-6.024e-05,0.304
-6.016e-05,0.302
-6.008e-05,0.302
-6.000e-05,0.302
-5.992e-05,0.302
-5.984e-05,0.302
-5.976e-05,0.302
-5.968e-05,0.302
-5.960e-05,0.302
-5.952e-05,0.304
-5.944e-05,0.304
-5.936e-05,0.306
-5.928e-05,0.304
-5.920e-05,0.304
-5.912e-05,0.304
-5.904e-05,0.306
-5.896e-05,0.306
-5.888e-05,0.306
-5.880e-05,0.306
-5.872e-05,0.306
-5.864e-05,0.306
-5.856e-05,0.308
-5.848e-05,0.306
-5.840e-05,0.308
-5.832e-05,0.308
-5.824e-05,0.306
-5.816e-05,0.306
-5.808e-05,0.308
-5.800e-05,0.306
-5.792e-05,0.306
-5.784e-05,0.306
-5.776e-05,0.306
-5.768e-05,0.306
-5.760e-05,0.308
-5.752e-05,0.308
-5.744e-05,0.308
-5.736e-05,0.308
-5.728e-05,0.306
-5.720e-05,0.306
-5.712e-05,0.308
-5.704e-05,0.308
-5.696e-05,0.308
-5.688e-05,0.306
-5.680e-05,0.308
-5.672e-05,0.306
-5.664e-05,0.308
-5.656e-05,0.308
-5.648e-05,0.308
-5.640e-05,0.308
-5.632e-05,0.308
-5.624e-05,0.308
-5.616e-05,0.312
-5.608e-05,0.306
-5.600e-05,0.308
-5.592e-05,0.306
-5.584e-05,0.306
-5.576e-05,0.306
-5.568e-05,0.306
-5.560e-05,0.306
-5.552e-05,0.308
-5.544e-05,0.308
-5.536e-05,0.306
-5.528e-05,0.308
-5.520e-05,0.304
-5.512e-05,0.306
-5.504e-05,0.306
-5.496e-05,0.304
-5.488e-05,0.306
-5.480e-05,0.306
-5.472e-05,0.304
-5.464e-05,0.304
-5.456e-05,0.306
-5.448e-05,0.306
-5.440e-05,0.306
-5.432e-05,0.304
-5.424e-05,0.306
-5.416e-05,0.306
-5.408e-05,0.304
-5.400e-05,0.304
-5.392e-05,0.306
-5.384e-05,0.304
-5.376e-05,0.304
-5.368e-05,0.304
-5.360e-05,0.304
-5.352e-05,0.304
-5.344e-05,0.304
-5.336e-05,0.306
-5.328e-05,0.304
-5.320e-05,0.304
-5.312e-05,0.304
-5.304e-05,0.304
-5.296e-05,0.304
-5.288e-05,0.304
-5.280e-05,0.302
-5.272e-05,0.304
-5.264e-05,0.302
-5.256e-05,0.302
-5.248e-05,0.302
-5.240e-05,0.302
-5.232e-05,0.302
-5.224e-05,0.302
-5.216e-05,0.302
-5.208e-05,0.3
-5.200e-05,0.302
-5.192e-05,0.302
-5.184e-05,0.302
-5.176e-05,0.304
-5.168e-05,0.302
-5.160e-05,0.302
-5.152e-05,0.302
-5.144e-05,0.302
-5.136e-05,0.302
-5.128e-05,0.302
-5.120e-05,0.302
-5.112e-05,0.302
-5.104e-05,0.304
-5.096e-05,0.302
-5.088e-05,0.302
-5.080e-05,0.302
-5.072e-05,0.302
-5.064e-05,0.304
-5.056e-05,0.302
-5.048e-05,0.302
-5.040e-05,0.302
-5.032e-05,0.302
-5.024e-05,0.302
-5.016e-05,0.3
-5.008e-05,0.302
-5.000e-05,0.302
-4.992e-05,0.3
-4.984e-05,0.3
-4.976e-05,0.3
-4.968e-05,0.3
-4.960e-05,0.3
-4.952e-05,0.296
-4.944e-05,0.296
-4.936e-05,0.296
-4.928e-05,0.294
-4.920e-05,0.294
-4.912e-05,0.294
-4.904e-05,0.292
-4.896e-05,0.29
-4.888e-05,0.29
-4.880e-05,0.288
-4.872e-05,0.288
-4.864e-05,0.284
-4.856e-05,0.286
-4.848e-05,0.284
-4.840e-05,0.284
-4.832e-05,0.284
-4.824e-05,0.284
-4.816e-05,0.284
-4.808e-05,0.282
-4.800e-05,0.282
-4.792e-05,0.278
-4.784e-05,0.28
-4.776e-05,0.274
-4.768e-05,0.276
-4.760e-05,0.27
-4.752e-05,0.272
-4.744e-05,0.272
-4.736e-05,0.268
-4.728e-05,0.266
-4.720e-05,0.266
-4.712e-05,0.264
-4.704e-05,0.262
-4.696e-05,0.262
-4.688e-05,0.26
-4.680e-05,0.258
-4.672e-05,0.258
-4.664e-05,0.256
-4.656e-05,0.256
-4.648e-05,0.254
-4.640e-05,0.254
-4.632e-05,0.252
-4.624e-05,0.25
-4.616e-05,0.25
-4.608e-05,0.25
-4.600e-05,0.25
-4.592e-05,0.25
-4.584e-05,0.25
-4.576e-05,0.25
-4.568e-05,0.25
-4.560e-05,0.25
-4.552e-05,0.248
-4.544e-05,0.248
-4.536e-05,0.248
-4.528e-05,0.248
-4.520e-05,0.248
-4.512e-05,0.248
-4.504e-05,0.248
-4.496e-05,0.248
-4.488e-05,0.248
-4.480e-05,0.248
-4.472e-05,0.248
-4.464e-05,0.248
-4.456e-05,0.248
-4.448e-05,0.248
-4.440e-05,0.248
-4.432e-05,0.246
-4.424e-05,0.248
-4.416e-05,0.246
-4.408e-05,0.246
-4.400e-05,0.246
-4.392e-05,0.246
-4.384e-05,0.246
-4.376e-05,0.246
-4.368e-05,0.248
-4.360e-05,0.244
-4.352e-05,0.246
-4.344e-05,0.246
-4.336e-05,0.246
-4.328e-05,0.246
-4.320e-05,0.244
-4.312e-05,0.246
-4.304e-05,0.244
-4.296e-05,0.244
-4.288e-05,0.244
-4.280e-05,0.244
-4.272e-05,0.246
-4.264e-05,0.244
-4.256e-05,0.244
-4.248e-05,0.244
-4.240e-05,0.246
-4.232e-05,0.244
-4.224e-05,0.244
-4.216e-05,0.244
-4.208e-05,0.244
-4.200e-05,0.244
-4.192e-05,0.244
-4.184e-05,0.244
-4.176e-05,0.244
-4.168e-05,0.244
-4.160e-05,0.242
-4.152e-05,0.244
-4.144e-05,0.242
-4.136e-05,0.242
-4.128e-05,0.24
-4.120e-05,0.24
-4.112e-05,0.242
-4.104e-05,0.24
-4.096e-05,0.24
-4.088e-05,0.242
-4.080e-05,0.24
-4.072e-05,0.242
-4.064e-05,0.242
-4.056e-05,0.242
-4.048e-05,0.242
-4.040e-05,0.242
-4.032e-05,0.242
-4.024e-05,0.24
-4.016e-05,0.24
-4.008e-05,0.246
-4.000e-05,0.242
-3.992e-05,0.24
-3.984e-05,0.242
-3.976e-05,0.242
-3.968e-05,0.242
-3.960e-05,0.244
-3.952e-05,0.244
-3.944e-05,0.242
-3.936e-05,0.242
-3.928e-05,0.244
-3.920e-05,0.244
-3.912e-05,0.244
-3.904e-05,0.244
-3.896e-05,0.244
-3.888e-05,0.244
-3.880e-05,0.244
-3.872e-05,0.244
-3.864e-05,0.244
-3.856e-05,0.244
-3.848e-05,0.244
-3.840e-05,0.242
-3.832e-05,0.242
-3.824e-05,0.242
-3.816e-05,0.24
-3.808e-05,0.24
-3.800e-05,0.24
-3.792e-05,0.24
-3.784e-05,0.24
-3.776e-05,0.238
-3.768e-05,0.24
-3.760e-05,0.238
-3.752e-05,0.238
-3.744e-05,0.238
-3.736e-05,0.238
-3.728e-05,0.238
-3.720e-05,0.238
-3.712e-05,0.238
-3.704e-05,0.238
-3.696e-05,0.236
-3.688e-05,0.238
-3.680e-05,0.238
-3.672e-05,0.236
-3.664e-05,0.236
-3.656e-05,0.236
-3.648e-05,0.236
-3.640e-05,0.236
-3.632e-05,0.236
-3.624e-05,0.236
-3.616e-05,0.236
-3.608e-05,0.238
-3.600e-05,0.238
-3.592e-05,0.236
-3.584e-05,0.236
-3.576e-05,0.236
-3.568e-05,0.236
-3.560e-05,0.236
-3.552e-05,0.236
-3.544e-05,0.236
-3.536e-05,0.236
-3.528e-05,0.236
-3.520e-05,0.234
-3.512e-05,0.234
-3.504e-05,0.234
-3.496e-05,0.234
-3.488e-05,0.236
-3.480e-05,0.234
-3.472e-05,0.234
-3.464e-05,0.234
-3.456e-05,0.234
-3.448e-05,0.234
-3.440e-05,0.234
-3.432e-05,0.234
-3.424e-05,0.234
-3.416e-05,0.234
-3.408e-05,0.234
-3.400e-05,0.234
-3.392e-05,0.232
-3.384e-05,0.232
-3.376e-05,0.234
-3.368e-05,0.232
-3.360e-05,0.232
-3.352e-05,0.232
-3.344e-05,0.234
-3.336e-05,0.232
-3.328e-05,0.234
-3.320e-05,0.234
-3.312e-05,0.234
-3.304e-05,0.234
-3.296e-05,0.232
-3.288e-05,0.232
-3.280e-05,0.232
-3.272e-05,0.234
-3.264e-05,0.234
-3.256e-05,0.232
-3.248e-05,0.234
-3.240e-05,0.236
-3.232e-05,0.234
-3.224e-05,0.236
-3.216e-05,0.236
-3.208e-05,0.236
-3.200e-05,0.236
-3.192e-05,0.236
-3.184e-05,0.236
-3.176e-05,0.236
-3.168e-05,0.236
-3.160e-05,0.236
-3.152e-05,0.236
-3.144e-05,0.236
-3.136e-05,0.236
-3.128e-05,0.236
-3.120e-05,0.236
-3.112e-05,0.236
-3.104e-05,0.236
-3.096e-05,0.236
-3.088e-05,0.236
-3.080e-05,0.236
-3.072e-05,0.236
-3.064e-05,0.236
-3.056e-05,0.236
-3.048e-05,0.238
-3.040e-05,0.238
-3.032e-05,0.238
-3.024e-05,0.238
-3.016e-05,0.236
-3.008e-05,0.238
-3.000e-05,0.236
-2.992e-05,0.238
-2.984e-05,0.236
-2.976e-05,0.238
-2.968e-05,0.238
-2.960e-05,0.236
-2.952e-05,0.238
-2.944e-05,0.236
-2.936e-05,0.236
-2.928e-05,0.236
-2.920e-05,0.238
-2.912e-05,0.236
-2.904e-05,0.236
-2.896e-05,0.236
-2.888e-05,0.236
-2.880e-05,0.236
-2.872e-05,0.236
-2.864e-05,0.238
-2.856e-05,0.236
-2.848e-05,0.236
-2.840e-05,0.238
-2.832e-05,0.236
-2.824e-05,0.238
-2.816e-05,0.236
-2.808e-05,0.236
-2.800e-05,0.236
-2.792e-05,0.236
-2.784e-05,0.238
-2.776e-05,0.234
-2.768e-05,0.234
-2.760e-05,0.236
-2.752e-05,0.236
-2.744e-05,0.234
-2.736e-05,0.232
-2.728e-05,0.232
-2.720e-05,0.232
-2.712e-05,0.232
-2.704e-05,0.232
-2.696e-05,0.232
-2.688e-05,0.232
-2.680e-05,0.232
-2.672e-05,0.232
-2.664e-05,0.232
-2.656e-05,0.232
-2.648e-05,0.232
-2.640e-05,0.232
-2.632e-05,0.234
-2.624e-05,0.232
-2.616e-05,0.234
-2.608e-05,0.232
-2.600e-05,0.234
-2.592e-05,0.232
-2.584e-05,0.232
-2.576e-05,0.232
-2.568e-05,0.232
-2.560e-05,0.234
-2.552e-05,0.232
-2.544e-05,0.232
-2.536e-05,0.234
-2.528e-05,0.234
-2.520e-05,0.232
-2.512e-05,0.23
-2.504e-05,0.234
-2.496e-05,0.234
-2.488e-05,0.232
-2.480e-05,0.232
-2.472e-05,0.23
-2.464e-05,0.23
-2.456e-05,0.23
-2.448e-05,0.23
-2.440e-05,0.23
-2.432e-05,0.23
-2.424e-05,0.23
-2.416e-05,0.23
-2.408e-05,0.23
-2.400e-05,0.23
-2.392e-05,0.23
-2.384e-05,0.23
-2.376e-05,0.23
-2.368e-05,0.23
-2.360e-05,0.23
-2.352e-05,0.23
-2.344e-05,0.23
-2.336e-05,0.23
-2.328e-05,0.23
-2.320e-05,0.23
-2.312e-05,0.23
-2.304e-05,0.232
-2.296e-05,0.23
-2.288e-05,0.23
-2.280e-05,0.232
-2.272e-05,0.232
-2.264e-05,0.232
-2.256e-05,0.232
-2.248e-05,0.234
-2.240e-05,0.234
-2.232e-05,0.234
-2.224e-05,0.234
-2.216e-05,0.236
-2.208e-05,0.236
-2.200e-05,0.236
-2.192e-05,0.236
-2.184e-05,0.236
-2.176e-05,0.236
-2.168e-05,0.238
-2.160e-05,0.238
-2.152e-05,0.238
-2.144e-05,0.24
-2.136e-05,0.24
-2.128e-05,0.238
-2.120e-05,0.238
-2.112e-05,0.24
-2.104e-05,0.24
-2.096e-05,0.242
-2.088e-05,0.24
-2.080e-05,0.24
-2.072e-05,0.24
-2.064e-05,0.24
-2.056e-05,0.24
-2.048e-05,0.24
-2.040e-05,0.24
-2.032e-05,0.242
-2.024e-05,0.242
-2.016e-05,0.242
-2.008e-05,0.24
-2.000e-05,0.24
-1.992e-05,0.242
-1.984e-05,0.242
-1.976e-05,0.24
-1.968e-05,0.24
-1.960e-05,0.24
-1.952e-05,0.24
-1.944e-05,0.24
-1.936e-05,0.24
-1.928e-05,0.24
-1.920e-05,0.24
-1.912e-05,0.24
-1.904e-05,0.24
-1.896e-05,0.238
-1.888e-05,0.242
-1.880e-05,0.238
-1.872e-05,0.242
-1.864e-05,0.238
-1.856e-05,0.24
-1.848e-05,0.238
-1.840e-05,0.24
-1.832e-05,0.238
-1.824e-05,0.238
-1.816e-05,0.238
-1.808e-05,0.24
-1.800e-05,0.236
-1.792e-05,0.238
-1.784e-05,0.238
-1.776e-05,0.234
-1.768e-05,0.238
-1.760e-05,0.24
-1.752e-05,0.238
-1.744e-05,0.236
-1.736e-05,0.238
-1.728e-05,0.238
-1.720e-05,0.238
-1.712e-05,0.238
-1.704e-05,0.238
-1.696e-05,0.238
-1.688e-05,0.238
-1.680e-05,0.238
-1.672e-05,0.236
-1.664e-05,0.238
-1.656e-05,0.238
-1.648e-05,0.236
-1.640e-05,0.238
-1.632e-05,0.236
-1.624e-05,0.236
-1.616e-05,0.236
-1.608e-05,0.234
-1.600e-05,0.234
-1.592e-05,0.234
-1.584e-05,0.232
-1.576e-05,0.232
-1.568e-05,0.232
-1.560e-05,0.23
-1.552e-05,0.23
-1.544e-05,0.232
-1.536e-05,0.232
-1.528e-05,0.232
-1.520e-05,0.232
-1.512e-05,0.23
-1.504e-05,0.23
-1.496e-05,0.23
-1.488e-05,0.232
-1.480e-05,0.23
-1.472e-05,0.23
-1.464e-05,0.232
-1.456e-05,0.232
-1.448e-05,0.232
-1.440e-05,0.234
-1.432e-05,0.232
-1.424e-05,0.232
-1.416e-05,0.232
-1.408e-05,0.234
-1.400e-05,0.232
-1.392e-05,0.232
-1.384e-05,0.232
-1.376e-05,0.232
-1.368e-05,0.234
-1.360e-05,0.234
-1.352e-05,0.234
-1.344e-05,0.234
-1.336e-05,0.234
-1.328e-05,0.234
-1.320e-05,0.232
-1.312e-05,0.232
-1.304e-05,0.23
-1.296e-05,0.23
-1.288e-05,0.23
-1.280e-05,0.23
-1.272e-05,0.228
-1.264e-05,0.228
-1.256e-05,0.228
-1.248e-05,0.228
-1.240e-05,0.228
-1.232e-05,0.228
-1.224e-05,0.228
-1.216e-05,0.228
-1.208e-05,0.226
-1.200e-05,0.224
-1.192e-05,0.224
-1.184e-05,0.224
-1.176e-05,0.226
-1.168e-05,0.226
-1.160e-05,0.226
-1.152e-05,0.222
-1.144e-05,0.226
-1.136e-05,0.226
-1.128e-05,0.23
-1.120e-05,0.226
-1.112e-05,0.228
-1.104e-05,0.228
-1.096e-05,0.228
-1.088e-05,0.228
-1.080e-05,0.226
-1.072e-05,0.226
-1.064e-05,0.228
-1.056e-05,0.228
-1.048e-05,0.228
-1.040e-05,0.226
-1.032e-05,0.224
-1.024e-05,0.23
-1.016e-05,0.228
-1.008e-05,0.224
-1.000e-05,0.222
-9.920e-06,0.224
-9.840e-06,0.222
-9.760e-06,0.22
-9.680e-06,0.216
-9.600e-06,0.214
-9.520e-06,0.212
-9.440e-06,0.212
-9.360e-06,0.21
-9.280e-06,0.208
-9.200e-06,0.208
-9.120e-06,0.208
-9.040e-06,0.208
-8.960e-06,0.206
-8.880e-06,0.206
-8.800e-06,0.206
-8.720e-06,0.206
-8.640e-06,0.206
-8.560e-06,0.206
-8.480e-06,0.206
-8.400e-06,0.206
-8.320e-06,0.206
-8.240e-06,0.204
-8.160e-06,0.204
-8.080e-06,0.204
-8.000e-06,0.204
-7.920e-06,0.204
-7.840e-06,0.204
-7.760e-06,0.202
-7.680e-06,0.204
-7.600e-06,0.202
-7.520e-06,0.204
-7.440e-06,0.202
-7.360e-06,0.202
-7.280e-06,0.202
-7.200e-06,0.202
-7.120e-06,0.202
-7.040e-06,0.202
-6.960e-06,0.202
-6.880e-06,0.2
-6.800e-06,0.2
-6.720e-06,0.198
-6.640e-06,0.198
-6.560e-06,0.198
-6.480e-06,0.196
-6.400e-06,0.196
-6.320e-06,0.194
-6.240e-06,0.194
-6.160e-06,0.194
-6.080e-06,0.192
-6.000e-06,0.19
-5.920e-06,0.19
-5.840e-06,0.188
-5.760e-06,0.188
-5.680e-06,0.188
-5.600e-06,0.186
-5.520e-06,0.186
-5.440e-06,0.184
-5.360e-06,0.184
-5.280e-06,0.184
-5.200e-06,0.182
-5.120e-06,0.18
-5.040e-06,0.18
-4.960e-06,0.18
-4.880e-06,0.18
-4.800e-06,0.18
-4.720e-06,0.178
-4.640e-06,0.178
-4.560e-06,0.178
-4.480e-06,0.18
-4.400e-06,0.178
-4.320e-06,0.178
-4.240e-06,0.176
-4.160e-06,0.176
-4.080e-06,0.176
-4.000e-06,0.178
-3.920e-06,0.176
-3.840e-06,0.178
-3.760e-06,0.172
-3.680e-06,0.176
-3.600e-06,0.172
-3.520e-06,0.174
-3.440e-06,0.172
-3.360e-06,0.172
-3.280e-06,0.172
-3.200e-06,0.174
-3.120e-06,0.174
-3.040e-06,0.172
-2.960e-06,0.172
-2.880e-06,0.172
-2.800e-06,0.178
-2.720e-06,0.176
-2.640e-06,0.176
-2.560e-06,0.176
-2.480e-06,0.178
-2.400e-06,0.178
-2.320e-06,0.176
-2.240e-06,0.178
-2.160e-06,0.176
-2.080e-06,0.178
-2.000e-06,0.176
-1.920e-06,0.176
-1.840e-06,0.176
-1.760e-06,0.176
-1.680e-06,0.176
-1.600e-06,0.176
-1.520e-06,0.176
-1.440e-06,0.176
-1.360e-06,0.176
-1.280e-06,0.176
-1.200e-06,0.178
-1.120e-06,0.176
-1.040e-06,0.176
-9.600e-07,0.176
-8.800e-07,0.174
-8.000e-07,0.176
-7.200e-07,0.174
-6.400e-07,0.174
-5.600e-07,0.172
-4.800e-07,0.168
-4.000e-07,0.168
-3.200e-07,0.166
-2.400e-07,0.162
-1.600e-07,0.16
-8.000e-08,0.158
-6.924e-19,0.156
8.000e-08,0.154
1.600e-07,0.152
2.400e-07,0.15
3.200e-07,0.148
4.000e-07,0.148
4.800e-07,0.146
5.600e-07,0.146
6.400e-07,0.142
7.200e-07,0.142
8.000e-07,0.14
8.800e-07,0.14
9.600e-07,0.14
1.040e-06,0.138
1.120e-06,0.136
1.200e-06,0.134
1.280e-06,0.136
1.360e-06,0.134
1.440e-06,0.132
1.520e-06,0.132
1.600e-06,0.132
1.680e-06,0.134
1.760e-06,0.132
1.840e-06,0.132
1.920e-06,0.132
2.000e-06,0.134
2.080e-06,0.134
2.160e-06,0.132
2.240e-06,0.132
2.320e-06,0.132
2.400e-06,0.132
2.480e-06,0.134
2.560e-06,0.134
2.640e-06,0.132
2.720e-06,0.132
2.800e-06,0.134
2.880e-06,0.136
2.960e-06,0.134
3.040e-06,0.132
3.120e-06,0.132
3.200e-06,0.132
3.280e-06,0.132
3.360e-06,0.13
3.440e-06,0.134
3.520e-06,0.132
3.600e-06,0.134
3.680e-06,0.13
3.760e-06,0.134
3.840e-06,0.132
3.920e-06,0.136
4.000e-06,0.134
4.080e-06,0.134
4.160e-06,0.132
4.240e-06,0.134
4.320e-06,0.132
4.400e-06,0.13
4.480e-06,0.132
4.560e-06,0.134
4.640e-06,0.138
4.720e-06,0.134
4.800e-06,0.13
4.880e-06,0.132
4.960e-06,0.134
5.040e-06,0.134
5.120e-06,0.134
5.200e-06,0.132
5.280e-06,0.134
5.360e-06,0.132
5.440e-06,0.134
5.520e-06,0.136
5.600e-06,0.134
5.680e-06,0.136
5.760e-06,0.136
5.840e-06,0.134
5.920e-06,0.136
6.000e-06,0.136
6.080e-06,0.136
6.160e-06,0.138
6.240e-06,0.134
6.320e-06,0.136
6.400e-06,0.136
6.480e-06,0.136
6.560e-06,0.136
6.640e-06,0.136
6.720e-06,0.14
6.800e-06,0.136
6.880e-06,0.138
6.960e-06,0.136
7.040e-06,0.136
7.120e-06,0.136
7.200e-06,0.136
7.280e-06,0.136
7.360e-06,0.134
7.440e-06,0.136
7.520e-06,0.136
7.600e-06,0.138
7.680e-06,0.136
7.760e-06,0.136
7.840e-06,0.134
7.920e-06,0.134
8.000e-06,0.136
8.080e-06,0.134
8.160e-06,0.132
8.240e-06,0.134
8.320e-06,0.134
8.400e-06,0.134
8.480e-06,0.132
8.560e-06,0.132
8.640e-06,0.134
8.720e-06,0.134
8.800e-06,0.132
8.880e-06,0.13
8.960e-06,0.132
9.040e-06,0.132
9.120e-06,0.132
9.200e-06,0.132
9.280e-06,0.132
9.360e-06,0.134
9.440e-06,0.134
9.520e-06,0.132
9.600e-06,0.134
9.680e-06,0.134
9.760e-06,0.13
9.840e-06,0.128
9.920e-06,0.128
1.000e-05,0.124
1.008e-05,0.124
1.016e-05,0.122
1.024e-05,0.12
1.032e-05,0.118
1.040e-05,0.12
1.048e-05,0.118
1.056e-05,0.118
1.064e-05,0.118
1.072e-05,0.116
1.080e-05,0.112
1.088e-05,0.116
1.096e-05,0.114
1.104e-05,0.114
1.112e-05,0.11
1.120e-05,0.112
1.128e-05,0.112
1.136e-05,0.112
1.144e-05,0.112
1.152e-05,0.11
1.160e-05,0.11
1.168e-05,0.114
1.176e-05,0.11
1.184e-05,0.108
1.192e-05,0.108
1.200e-05,0.11
1.208e-05,0.116
1.216e-05,0.11
1.224e-05,0.11
1.232e-05,0.112
1.240e-05,0.112
1.248e-05,0.112
1.256e-05,0.114
1.264e-05,0.114
1.272e-05,0.114
1.280e-05,0.112
1.288e-05,0.114
1.296e-05,0.114
1.304e-05,0.112
1.312e-05,0.114
1.320e-05,0.114
1.328e-05,0.114
1.336e-05,0.114
1.344e-05,0.114
1.352e-05,0.114
1.360e-05,0.112
1.368e-05,0.114
1.376e-05,0.112
1.384e-05,0.112
1.392e-05,0.112
1.400e-05,0.11
1.408e-05,0.112
1.416e-05,0.11
1.424e-05,0.112
1.432e-05,0.11
1.440e-05,0.11
1.448e-05,0.112
1.456e-05,0.112
