QC/QC_lab/TEK00004.CSV

Model,TBS1102C
Firmware Version,v1.29.30

Point Format,Y
Horizontal Units,S
Horizontal Scale,1e-05
Sample Interval,8e-08
Filter Frequency,2e+08
Record Length,2000
Gating,0.0% to 100.0%
Probe Attenuation,1
Vertical Units,V
Vertical Offset,0
Vertical Scale,0.05
Label,
TIME,CH1
-8.000e-05,0.442
-7.992e-05,0.442
-7.984e-05,0.442
-7.976e-05,0.442
-7.968e-05,0.442
-7.960e-05,0.442
-7.952e-05,0.442
-7.944e-05,0.442
-7.936e-05,0.442
-7.928e-05,0.442
-7.920e-05,0.442
-7.912e-05,0.442
-7.904e-05,0.442
-7.896e-05,0.442
-7.888e-05,0.442
-7.880e-05,0.442
-7.872e-05,0.442
-7.864e-05,0.442
-7.856e-05,0.442
-7.848e-05,0.442
-7.840e-05,0.442
-7.832e-05,0.442
-7.824e-05,0.442
-7.816e-05,0.442
-7.808e-05,0.442
-7.800e-05,0.442
-7.792e-05,0.442
-7.784e-05,0.442
-7.776e-05,0.442
-7.768e-05,0.442
-7.760e-05,0.442
-7.752e-05,0.442
-7.744e-05,0.442
-7.736e-05,0.442
-7.728e-05,0.442
-7.720e-05,0.442
-7.712e-05,0.442
-7.704e-05,0.442
-7.696e-05,0.442
-7.688e-05,0.442
-7.680e-05,0.442
-7.672e-05,0.442
-7.664e-05,0.442
-7.656e-05,0.442
-7.648e-05,0.442
-7.640e-05,0.442
-7.632e-05,0.442
-7.624e-05,0.442
-7.616e-05,0.442
-7.608e-05,0.442
-7.600e-05,0.442
-7.592e-05,0.442
-7.584e-05,0.442
-7.576e-05,0.442
-7.568e-05,0.442
-7.560e-05,0.442
-7.552e-05,0.442
-7.544e-05,0.442
-7.536e-05,0.442
-7.528e-05,0.442
-7.520e-05,0.442
-7.512e-05,0.442
-7.504e-05,0.442
-7.496e-05,0.442
-7.488e-05,0.442
-7.480e-05,0.442
-7.472e-05,0.442
-7.464e-05,0.442
-7.456e-05,0.442
-7.448e-05,0.442
-7.440e-05,0.442
-7.432e-05,0.442
-7.424e-05,0.442
-7.416e-05,0.442
-7.408e-05,0.442
-7.400e-05,0.442
-7.392e-05,0.442
-7.384e-05,0.442
-7.376e-05,0.442
-7.368e-05,0.442
-7.360e-05,0.442
-7.352e-05,0.442
-7.344e-05,0.442
-7.336e-05,0.442
-7.328e-05,0.442
-7.320e-05,0.442
-7.312e-05,0.442
-7.304e-05,0.442
-7.296e-05,0.442
-7.288e-05,0.442
-7.280e-05,0.442
-7.272e-05,0.442
-7.264e-05,0.442
-7.256e-05,0.442
-7.248e-05,0.442
-7.240e-05,0.442
-7.232e-05,0.442
-7.224e-05,0.442
-7.216e-05,0.442
-7.208e-05,0.442
-7.200e-05,0.442
-7.192e-05,0.442
-7.184e-05,0.442
-7.176e-05,0.442
-7.168e-05,0.442
-7.160e-05,0.442
-7.152e-05,0.442
-7.144e-05,0.442
-7.136e-05,0.442
-7.128e-05,0.442
-7.120e-05,0.442
-7.112e-05,0.442
-7.104e-05,0.442
-7.096e-05,0.442
-7.088e-05,0.442
-7.080e-05,0.442
-7.072e-05,0.442
-7.064e-05,0.442
-7.056e-05,0.442
-7.048e-05,0.442
-7.040e-05,0.442
-7.032e-05,0.442
-7.024e-05,0.442
-7.016e-05,0.442
-7.008e-05,0.442
-7.000e-05,0.442
-6.992e-05,0.442
-6.984e-05,0.442
-6.976e-05,0.442
-6.968e-05,0.442
-6.960e-05,0.442
-6.952e-05,0.442
-6.944e-05,0.442
-6.936e-05,0.442
-6.928e-05,0.442
-6.920e-05,0.442
-6.912e-05,0.442
-6.904e-05,0.442
-6.896e-05,0.442
-6.888e-05,0.442
-6.880e-05,0.442
-6.872e-05,0.442
-6.864e-05,0.442
-6.856e-05,0.442
-6.848e-05,0.442
-6.840e-05,0.442
-6.832e-05,0.442
-6.824e-05,0.442
-6.816e-05,0.442
-6.808e-05,0.442
-6.800e-05,0.442
-6.792e-05,0.442
-6.784e-05,0.442
-6.776e-05,0.442
-6.768e-05,0.442
-6.760e-05,0.442
-6.752e-05,0.442
-6.744e-05,0.442
-6.736e-05,0.442
-6.728e-05,0.442
-6.720e-05,0.442
-6.712e-05,0.442
-6.704e-05,0.442
-6.696e-05,0.442
-6.688e-05,0.442
-6.680e-05,0.442
-6.672e-05,0.442
-6.664e-05,0.442
-6.656e-05,0.442
-6.648e-05,0.442
-6.640e-05,0.442
-6.632e-05,0.442
-6.624e-05,0.442
-6.616e-05,0.442
-6.608e-05,0.442
-6.600e-05,0.442
-6.592e-05,0.442
-6.584e-05,0.442
-6.576e-05,0.442
-6.568e-05,0.442
-6.560e-05,0.442
-6.552e-05,0.442
-6.544e-05,0.442
-6.536e-05,0.442
-6.528e-05,0.442
-6.520e-05,0.442
-6.512e-05,0.442
-6.504e-05,0.442
-6.496e-05,0.442
-6.488e-05,0.442
-6.480e-05,0.442
-6.472e-05,0.442
-6.464e-05,0.442
-6.456e-05,0.442
-6.448e-05,0.442
-6.440e-05,0.442
-6.432e-05,0.442
-6.424e-05,0.442
-6.416e-05,0.442
-6.408e-05,0.442
-6.400e-05,0.442
-6.392e-05,0.442
-6.384e-05,0.442
-6.376e-05,0.442
-6.368e-05,0.442
-6.360e-05,0.442
-6.352e-05,0.442
-6.344e-05,0.442
-6.336e-05,0.442
-6.328e-05,0.442
-6.320e-05,0.442
-6.312e-05,0.442
-6.304e-05,0.442
-6.296e-05,0.442
-6.288e-05,0.442
-6.280e-05,0.442
-6.272e-05,0.442
-6.264e-05,0.442
-6.256e-05,0.442
-6.248e-05,0.442
-6.240e-05,0.442
-6.232e-05,0.442
-6.224e-05,0.442
-6.216e-05,0.442
-6.208e-05,0.442
-6.200e-05,0.442
-6.192e-05,0.442
-6.184e-05,0.442
-6.176e-05,0.442
-6.168e-05,0.442
-6.160e-05,0.442
-6.152e-05,0.442
-6.144e-05,0.442
-6.136e-05,0.442
-6.128e-05,0.442
-6.120e-05,0.442
-6.112e-05,0.442
-6.104e-05,0.442
-6.096e-05,0.442
-6.088e-05,0.442
-6.080e-05,0.442
-6.072e-05,0.442
-6.064e-05,0.442
-6.056e-05,0.442
-6.048e-05,0.442
-6.040e-05,0.442
-6.032e-05,0.442
-6.024e-05,0.442
-6.016e-05,0.442
-6.008e-05,0.442
-6.000e-05,0.442
-5.992e-05,0.442
-5.984e-05,0.442
-5.976e-05,0.442
-5.968e-05,0.442
-5.960e-05,0.442
-5.952e-05,0.442
-5.944e-05,0.442
-5.936e-05,0.442
-5.928e-05,0.442
-5.920e-05,0.442
-5.912e-05,0.442
-5.904e-05,0.442
-5.896e-05,0.442
-5.888e-05,0.442
-5.880e-05,0.442
-5.872e-05,0.442
-5.864e-05,0.442
-5.856e-05,0.442
-5.848e-05,0.442
-5.840e-05,0.442
-5.832e-05,0.442
-5.824e-05,0.442
-5.816e-05,0.442
-5.808e-05,0.442
-5.800e-05,0.442
-5.792e-05,0.442
-5.784e-05,0.442
-5.776e-05,0.442
-5.768e-05,0.442
-5.760e-05,0.442
-5.752e-05,0.442
-5.744e-05,0.442
-5.736e-05,0.442
-5.728e-05,0.442
-5.720e-05,0.442
-5.712e-05,0.442
-5.704e-05,0.442
-5.696e-05,0.442
-5.688e-05,0.442
-5.680e-05,0.442
-5.672e-05,0.442
-5.664e-05,0.442
-5.656e-05,0.442
-5.648e-05,0.442
-5.640e-05,0.442
-5.632e-05,0.442
-5.624e-05,0.442
-5.616e-05,0.442
-5.608e-05,0.442
-5.600e-05,0.442
-5.592e-05,0.442
-5.584e-05,0.442
-5.576e-05,0.442
-5.568e-05,0.442
-5.560e-05,0.442
-5.552e-05,0.442
-5.544e-05,0.442
-5.536e-05,0.442
-5.528e-05,0.442
-5.520e-05,0.442
-5.512e-05,0.442
-5.504e-05,0.442
-5.496e-05,0.442
-5.488e-05,0.442
-5.480e-05,0.442
-5.472e-05,0.442
-5.464e-05,0.442
-5.456e-05,0.442
-5.448e-05,0.442
-5.440e-05,0.442
-5.432e-05,0.442
-5.424e-05,0.442
-5.416e-05,0.442
-5.408e-05,0.442
-5.400e-05,0.442
-5.392e-05,0.442
-5.384e-05,0.442
-5.376e-05,0.442
-5.368e-05,0.442
-5.360e-05,0.442
-5.352e-05,0.442
-5.344e-05,0.442
-5.336e-05,0.442
-5.328e-05,0.442
-5.320e-05,0.442
-5.312e-05,0.442
-5.304e-05,0.442
-5.296e-05,0.442
-5.288e-05,0.442
-5.280e-05,0.442
-5.272e-05,0.442
-5.264e-05,0.442
-5.256e-05,0.442
-5.248e-05,0.442
-5.240e-05,0.442
-5.232e-05,0.442
-5.224e-05,0.442
-5.216e-05,0.442
-5.208e-05,0.442
-5.200e-05,0.442
-5.192e-05,0.442
-5.184e-05,0.442
-5.176e-05,0.442
-5.168e-05,0.442
-5.160e-05,0.442
-5.152e-05,0.442
-5.144e-05,0.442
-5.136e-05,0.442
-5.128e-05,0.442
-5.120e-05,0.442
-5.112e-05,0.442
-5.104e-05,0.442
-5.096e-05,0.442
-5.088e-05,0.442
-5.080e-05,0.442
-5.072e-05,0.442
-5.064e-05,0.442
-5.056e-05,0.442
-5.048e-05,0.442
-5.040e-05,0.442
-5.032e-05,0.442
-5.024e-05,0.442
-5.016e-05,0.442
-5.008e-05,0.442
-5.000e-05,0.442
-4.992e-05,0.442
-4.984e-05,0.442
-4.976e-05,0.442
-4.968e-05,0.442
-4.960e-05,0.442
-4.952e-05,0.442
-4.944e-05,0.442
-4.936e-05,0.442
-4.928e-05,0.442
-4.920e-05,0.442
-4.912e-05,0.442
-4.904e-05,0.442
-4.896e-05,0.442
-4.888e-05,0.442
-4.880e-05,0.442
-4.872e-05,0.442
-4.864e-05,0.442
-4.856e-05,0.442
-4.848e-05,0.442
-4.840e-05,0.442
-4.832e-05,0.442
-4.824e-05,0.442
-4.816e-05,0.442
-4.808e-05,0.442
-4.800e-05,0.442
-4.792e-05,0.442
-4.784e-05,0.442
-4.776e-05,0.442
-4.768e-05,0.442
-4.760e-05,0.442
-4.752e-05,0.442
-4.744e-05,0.442
-4.736e-05,0.442
-4.728e-05,0.442
-4.720e-05,0.442
-4.712e-05,0.442
-4.704e-05,0.442
-4.696e-05,0.442
-4.688e-05,0.442
-4.680e-05,0.442
-4.672e-05,0.442
-4.664e-05,0.442
-4.656e-05,0.442
-4.648e-05,0.442
-4.640e-05,0.442
-4.632e-05,0.442
-4.624e-05,0.442
-4.616e-05,0.442
-4.608e-05,0.442
-4.600e-05,0.442
-4.592e-05,0.442
-4.584e-05,0.442
-4.576e-05,0.442
-4.568e-05,0.442
-4.560e-05,0.442
-4.552e-05,0.442
-4.544e-05,0.442
-4.536e-05,0.442
-4.528e-05,0.442
-4.520e-05,0.442
-4.512e-05,0.442
-4.504e-05,0.442
-4.496e-05,0.442
-4.488e-05,0.442
-4.480e-05,0.442
-4.472e-05,0.442
-4.464e-05,0.442
-4.456e-05,0.442
-4.448e-05,0.442
-4.440e-05,0.442
-4.432e-05,0.442
-4.424e-05,0.442
-4.416e-05,0.442
-4.408e-05,0.442
-4.400e-05,0.442
-4.392e-05,0.442
-4.384e-05,0.442
-4.376e-05,0.442
-4.368e-05,0.442
-4.360e-05,0.442
-4.352e-05,0.442
-4.344e-05,0.442
-4.336e-05,0.442
-4.328e-05,0.442
-4.320e-05,0.442
-4.312e-05,0.442
-4.304e-05,0.442
-4.296e-05,0.442
-4.288e-05,0.442
-4.280e-05,0.442
-4.272e-05,0.442
-4.264e-05,0.442
-4.256e-05,0.442
-4.248e-05,0.442
-4.240e-05,0.442
-4.232e-05,0.442
-4.224e-05,0.442
-4.216e-05,0.442
-4.208e-05,0.442
-4.200e-05,0.442
-4.192e-05,0.442
-4.184e-05,0.442
-4.176e-05,0.442
-4.168e-05,0.442
-4.160e-05,0.442
-4.152e-05,0.442
-4.144e-05,0.442
-4.136e-05,0.442
-4.128e-05,0.442
-4.120e-05,0.442
-4.112e-05,0.442
-4.104e-05,0.442
-4.096e-05,0.442
-4.088e-05,0.442
-4.080e-05,0.442
-4.072e-05,0.442
-4.064e-05,0.442
-4.056e-05,0.442
-4.048e-05,0.442
-4.040e-05,0.442
-4.032e-05,0.442
-4.024e-05,0.442
-4.016e-05,0.442
-4.008e-05,0.442
-4.000e-05,0.442
-3.992e-05,0.442
-3.984e-05,0.442
-3.976e-05,0.442
-3.968e-05,0.442
-3.960e-05,0.442
-3.952e-05,0.442
-3.944e-05,0.442
-3.936e-05,0.442
-3.928e-05,0.442
-3.920e-05,0.442
-3.912e-05,0.442
-3.904e-05,0.442
-3.896e-05,0.442
-3.888e-05,0.442
-3.880e-05,0.442
-3.872e-05,0.442
-3.864e-05,0.442
-3.856e-05,0.442
-3.848e-05,0.442
-3.840e-05,0.442
-3.832e-05,0.442
-3.824e-05,0.442
-3.816e-05,0.442
-3.808e-05,0.442
-3.800e-05,0.442
-3.792e-05,0.442
-3.784e-05,0.442
-3.776e-05,0.442
-3.768e-05,0.442
-3.760e-05,0.442
-3.752e-05,0.442
-3.744e-05,0.442
-3.736e-05,0.442
-3.728e-05,0.442
-3.720e-05,0.442
-3.712e-05,0.442
-3.704e-05,0.442
-3.696e-05,0.442
-3.688e-05,0.442
-3.680e-05,0.442
-3.672e-05,0.442
-3.664e-05,0.442
-3.656e-05,0.442
-3.648e-05,0.442
-3.640e-05,0.442
-3.632e-05,0.442
-3.624e-05,0.442
-3.616e-05,0.442
-3.608e-05,0.442
-3.600e-05,0.442
-3.592e-05,0.442
-3.584e-05,0.442
-3.576e-05,0.442
-3.568e-05,0.442
-3.560e-05,0.442
-3.552e-05,0.442
-3.544e-05,0.442
-3.536e-05,0.442
-3.528e-05,0.442
-3.520e-05,0.442
-3.512e-05,0.442
-3.504e-05,0.442
-3.496e-05,0.442
-3.488e-05,0.442
-3.480e-05,0.442
-3.472e-05,0.442
-3.464e-05,0.442
-3.456e-05,0.442
-3.448e-05,0.442
-3.440e-05,0.442
-3.432e-05,0.442
-3.424e-05,0.442
-3.416e-05,0.442
-3.408e-05,0.442
-3.400e-05,0.442
-3.392e-05,0.442
-3.384e-05,0.442
-3.376e-05,0.442
-3.368e-05,0.442
-3.360e-05,0.442
-3.352e-05,0.442
-3.344e-05,0.442
-3.336e-05,0.442
-3.328e-05,0.442
-3.320e-05,0.442
-3.312e-05,0.442
-3.304e-05,0.442
-3.296e-05,0.442
-3.288e-05,0.442
-3.280e-05,0.442
-3.272e-05,0.442
-3.264e-05,0.442
-3.256e-05,0.442
-3.248e-05,0.442
-3.240e-05,0.442
-3.232e-05,0.442
-3.224e-05,0.442
-3.216e-05,0.442
-3.208e-05,0.442
-3.200e-05,0.442
-3.192e-05,0.442
-3.184e-05,0.442
-3.176e-05,0.442
-3.168e-05,0.442
-3.160e-05,0.442
-3.152e-05,0.442
-3.144e-05,0.442
-3.136e-05,0.442
-3.128e-05,0.442
-3.120e-05,0.442
-3.112e-05,0.442
-3.104e-05,0.442
-3.096e-05,0.442
-3.088e-05,0.442
-3.080e-05,0.442
-3.072e-05,0.442
-3.064e-05,0.442
-3.056e-05,0.442
-3.048e-05,0.442
-3.040e-05,0.442
-3.032e-05,0.442
-3.024e-05,0.442
-3.016e-05,0.442
-3.008e-05,0.442
-3.000e-05,0.442
-2.992e-05,0.442
-2.984e-05,0.442
-2.976e-05,0.442
-2.968e-05,0.442
-2.960e-05,0.442
-2.952e-05,0.442
-2.944e-05,0.442
-2.936e-05,0.442
-2.928e-05,0.442
-2.920e-05,0.442
-2.912e-05,0.442
-2.904e-05,0.442
-2.896e-05,0.442
-2.888e-05,0.442
-2.880e-05,0.442
-2.872e-05,0.442
-2.864e-05,0.442
-2.856e-05,0.442
-2.848e-05,0.442
-2.840e-05,0.442
-2.832e-05,0.442
-2.824e-05,0.442
-2.816e-05,0.442
-2.808e-05,0.442
-2.800e-05,0.442
-2.792e-05,0.442
-2.784e-05,0.442
-2.776e-05,0.442
-2.768e-05,0.442
-2.760e-05,0.442
-2.752e-05,0.442
-2.744e-05,0.442
-2.736e-05,0.442
-2.728e-05,0.442
-2.720e-05,0.442
-2.712e-05,0.442
-2.704e-05,0.442
-2.696e-05,0.442
-2.688e-05,0.442
-2.680e-05,0.442
-2.672e-05,0.442
-2.664e-05,0.442
-2.656e-05,0.442
-2.648e-05,0.442
-2.640e-05,0.442
-2.632e-05,0.442
-2.624e-05,0.442
-2.616e-05,0.442
-2.608e-05,0.442
-2.600e-05,0.442
-2.592e-05,0.442
-2.584e-05,0.442
-2.576e-05,0.442
-2.568e-05,0.442
-2.560e-05,0.442
-2.552e-05,0.442
-2.544e-05,0.442
-2.536e-05,0.442
-2.528e-05,0.442
-2.520e-05,0.442
-2.512e-05,0.442
-2.504e-05,0.442
-2.496e-05,0.442
-2.488e-05,0.442
-2.480e-05,0.442
-2.472e-05,0.442
-2.464e-05,0.442
-2.456e-05,0.442
-2.448e-05,0.442
-2.440e-05,0.442
-2.432e-05,0.442
-2.424e-05,0.442
-2.416e-05,0.442
-2.408e-05,0.442
-2.400e-05,0.442
-2.392e-05,0.442
-2.384e-05,0.442
-2.376e-05,0.442
-2.368e-05,0.442
-2.360e-05,0.442
-2.352e-05,0.442
-2.344e-05,0.442
-2.336e-05,0.442
-2.328e-05,0.442
-2.320e-05,0.442
-2.312e-05,0.442
-2.304e-05,0.442
-2.296e-05,0.442
-2.288e-05,0.442
-2.280e-05,0.442
-2.272e-05,0.442
-2.264e-05,0.442
-2.256e-05,0.442
-2.248e-05,0.442
-2.240e-05,0.442
-2.232e-05,0.442
-2.224e-05,0.442
-2.216e-05,0.442
-2.208e-05,0.442
-2.200e-05,0.442
-2.192e-05,0.442
-2.184e-05,0.442
-2.176e-05,0.442
-2.168e-05,0.442
-2.160e-05,0.442
-2.152e-05,0.442
-2.144e-05,0.442
-2.136e-05,0.442
-2.128e-05,0.442
-2.120e-05,0.442
-2.112e-05,0.442
-2.104e-05,0.442
-2.096e-05,0.442
-2.088e-05,0.442
-2.080e-05,0.442
-2.072e-05,0.442
-2.064e-05,0.442
-2.056e-05,0.442
-2.048e-05,0.442
-2.040e-05,0.442
-2.032e-05,0.442
-2.024e-05,0.442
-2.016e-05,0.442
-2.008e-05,0.442
-2.000e-05,0.442
-1.992e-05,0.442
-1.984e-05,0.442
-1.976e-05,0.442
-1.968e-05,0.442
-1.960e-05,0.442
-1.952e-05,0.442
-1.944e-05,0.442
-1.936e-05,0.442
-1.928e-05,0.442
-1.920e-05,0.442
-1.912e-05,0.442
-1.904e-05,0.442
-1.896e-05,0.442
-1.888e-05,0.442
-1.880e-05,0.442
-1.872e-05,0.442
-1.864e-05,0.442
-1.856e-05,0.442
-1.848e-05,0.442
-1.840e-05,0.442
-1.832e-05,0.442
-1.824e-05,0.442
-1.816e-05,0.442
-1.808e-05,0.442
-1.800e-05,0.442
-1.792e-05,0.442
-1.784e-05,0.442
-1.776e-05,0.442
-1.768e-05,0.442
-1.760e-05,0.442
-1.752e-05,0.442
-1.744e-05,0.442
-1.736e-05,0.442
-1.728e-05,0.442
-1.720e-05,0.442
-1.712e-05,0.442
-1.704e-05,0.442
-1.696e-05,0.442
-1.688e-05,0.442
-1.680e-05,0.442
-1.672e-05,0.442
-1.664e-05,0.442
-1.656e-05,0.442
-1.648e-05,0.442
-1.640e-05,0.442
-1.632e-05,0.442
-1.624e-05,0.442
-1.616e-05,0.442
-1.608e-05,0.442
-1.600e-05,0.442
-1.592e-05,0.442
-1.584e-05,0.442
-1.576e-05,0.442
-1.568e-05,0.442
-1.560e-05,0.442
-1.552e-05,0.442
-1.544e-05,0.442
-1.536e-05,0.442
-1.528e-05,0.442
-1.520e-05,0.442
-1.512e-05,0.442
-1.504e-05,0.442
-1.496e-05,0.442
-1.488e-05,0.442
-1.480e-05,0.442
-1.472e-05,0.442
-1.464e-05,0.442
-1.456e-05,0.442
-1.448e-05,0.442
-1.440e-05,0.442
-1.432e-05,0.442
-1.424e-05,0.442
-1.416e-05,0.442
-1.408e-05,0.442
-1.400e-05,0.442
-1.392e-05,0.442
-1.384e-05,0.442
-1.376e-05,0.442
-1.368e-05,0.442
-1.360e-05,0.442
-1.352e-05,0.442
-1.344e-05,0.442
-1.336e-05,0.442
-1.328e-05,0.442
-1.320e-05,0.442
-1.312e-05,0.442
-1.304e-05,0.442
-1.296e-05,0.442
-1.288e-05,0.442
-1.280e-05,0.442
-1.272e-05,0.442
-1.264e-05,0.442
-1.256e-05,0.442
-1.248e-05,0.442
-1.240e-05,0.442
-1.232e-05,0.442
-1.224e-05,0.442
-1.216e-05,0.442
-1.208e-05,0.442
-1.200e-05,0.442
-1.192e-05,0.442
-1.184e-05,0.442
-1.176e-05,0.442
-1.168e-05,0.442
-1.160e-05,0.44
-1.152e-05,0.44
-1.144e-05,0.436
-1.136e-05,0.434
-1.128e-05,0.432
-1.120e-05,0.43
-1.112e-05,0.428
-1.104e-05,0.426
-1.096e-05,0.424
-1.088e-05,0.424
-1.080e-05,0.422
-1.072e-05,0.42
-1.064e-05,0.418
-1.056e-05,0.416
-1.048e-05,0.416
-1.040e-05,0.414
-1.032e-05,0.414
-1.024e-05,0.414
-1.016e-05,0.412
-1.008e-05,0.41
-1.000e-05,0.412
-9.920e-06,0.41
-9.840e-06,0.41
-9.760e-06,0.408
-9.680e-06,0.408
-9.600e-06,0.408
-9.520e-06,0.406
-9.440e-06,0.408
-9.360e-06,0.406
-9.280e-06,0.406
-9.200e-06,0.404
-9.120e-06,0.404
-9.040e-06,0.404
-8.960e-06,0.404
-8.880e-06,0.402
-8.800e-06,0.402
-8.720e-06,0.404
-8.640e-06,0.402
-8.560e-06,0.4
-8.480e-06,0.402
-8.400e-06,0.4
-8.320e-06,0.4
-8.240e-06,0.398
-8.160e-06,0.398
-8.080e-06,0.398
-8.000e-06,0.396
-7.920e-06,0.396
-7.840e-06,0.396
-7.760e-06,0.396
-7.680e-06,0.394
-7.600e-06,0.394
-7.520e-06,0.394
-7.440e-06,0.392
-7.360e-06,0.392
-7.280e-06,0.392
-7.200e-06,0.392
-7.120e-06,0.39
-7.040e-06,0.39
-6.960e-06,0.388
-6.880e-06,0.388
-6.800e-06,0.388
-6.720e-06,0.386
-6.640e-06,0.386
-6.560e-06,0.386
-6.480e-06,0.386
-6.400e-06,0.384
-6.320e-06,0.382
-6.240e-06,0.38
-6.160e-06,0.378
-6.080e-06,0.376
-6.000e-06,0.372
-5.920e-06,0.368
-5.840e-06,0.364
-5.760e-06,0.36
-5.680e-06,0.354
-5.600e-06,0.35
-5.520e-06,0.346
-5.440e-06,0.342
-5.360e-06,0.34
-5.280e-06,0.334
-5.200e-06,0.332
-5.120e-06,0.328
-5.040e-06,0.326
-4.960e-06,0.324
-4.880e-06,0.32
-4.800e-06,0.32
-4.720e-06,0.316
-4.640e-06,0.312
-4.560e-06,0.308
-4.480e-06,0.298
-4.400e-06,0.286
-4.320e-06,0.272
-4.240e-06,0.258
-4.160e-06,0.242
-4.080e-06,0.228
-4.000e-06,0.214
-3.920e-06,0.202
-3.840e-06,0.19
-3.760e-06,0.182
-3.680e-06,0.176
-3.600e-06,0.176
-3.520e-06,0.178
-3.440e-06,0.182
-3.360e-06,0.186
-3.280e-06,0.192
-3.200e-06,0.198
-3.120e-06,0.204
-3.040e-06,0.21
-2.960e-06,0.216
-2.880e-06,0.222
-2.800e-06,0.226
-2.720e-06,0.23
-2.640e-06,0.236
-2.560e-06,0.242
-2.480e-06,0.244
-2.400e-06,0.248
-2.320e-06,0.252
-2.240e-06,0.258
-2.160e-06,0.26
-2.080e-06,0.262
-2.000e-06,0.264
-1.920e-06,0.268
-1.840e-06,0.27
-1.760e-06,0.272
-1.680e-06,0.274
-1.600e-06,0.274
-1.520e-06,0.276
-1.440e-06,0.278
-1.360e-06,0.276
-1.280e-06,0.276
-1.200e-06,0.276
-1.120e-06,0.274
-1.040e-06,0.274
-9.600e-07,0.272
-8.800e-07,0.264
-8.000e-07,0.258
-7.200e-07,0.252
-6.400e-07,0.244
-5.600e-07,0.236
-4.800e-07,0.228
-4.000e-07,0.214
-3.200e-07,0.202
-2.400e-07,0.19
-1.600e-07,0.176
-8.000e-08,0.164
-6.924e-19,0.152
8.000e-08,0.14
1.600e-07,0.13
2.400e-07,0.12
3.200e-07,0.112
4.000e-07,0.102
4.800e-07,0.098
5.600e-07,0.09
6.400e-07,0.086
7.200e-07,0.084
8.000e-07,0.08
8.800e-07,0.078
9.600e-07,0.078
1.040e-06,0.076
1.120e-06,0.078
1.200e-06,0.078
1.280e-06,0.078
1.360e-06,0.08
1.440e-06,0.08
1.520e-06,0.082
1.600e-06,0.082
1.680e-06,0.084
1.760e-06,0.086
1.840e-06,0.086
1.920e-06,0.088
2.000e-06,0.088
2.080e-06,0.09
2.160e-06,0.09
2.240e-06,0.09
2.320e-06,0.09
2.400e-06,0.09
2.480e-06,0.092
2.560e-06,0.092
2.640e-06,0.094
2.720e-06,0.096
2.800e-06,0.098
2.880e-06,0.1
2.960e-06,0.1
3.040e-06,0.102
3.120e-06,0.104
3.200e-06,0.104
3.280e-06,0.106
3.360e-06,0.106
3.440e-06,0.108
3.520e-06,0.108
3.600e-06,0.108
3.680e-06,0.108
3.760e-06,0.108
3.840e-06,0.108
3.920e-06,0.108
4.000e-06,0.108
4.080e-06,0.106
4.160e-06,0.104
4.240e-06,0.102
4.320e-06,0.102
4.400e-06,0.1
4.480e-06,0.098
4.560e-06,0.096
4.640e-06,0.096
4.720e-06,0.096
4.800e-06,0.094
4.880e-06,0.092
4.960e-06,0.092
5.040e-06,0.09
5.120e-06,0.09
5.200e-06,0.09
5.280e-06,0.088
5.360e-06,0.088
5.440e-06,0.088
5.520e-06,0.088
5.600e-06,0.086
5.680e-06,0.086
5.760e-06,0.086
5.840e-06,0.088
5.920e-06,0.086
6.000e-06,0.086
6.080e-06,0.086
6.160e-06,0.086
6.240e-06,0.086
6.320e-06,0.086
6.400e-06,0.086
6.480e-06,0.086
6.560e-06,0.086
6.640e-06,0.086
6.720e-06,0.086
6.800e-06,0.088
6.880e-06,0.084
6.960e-06,0.084
7.040e-06,0.086
7.120e-06,0.084
7.200e-06,0.084
7.280e-06,0.084
7.360e-06,0.082
7.440e-06,0.082
7.520e-06,0.082
7.600e-06,0.082
7.680e-06,0.082
7.760e-06,0.082
7.840e-06,0.082
7.920e-06,0.082
8.000e-06,0.082
8.080e-06,0.082
8.160e-06,0.08
8.240e-06,0.082
8.320e-06,0.08
8.400e-06,0.08
8.480e-06,0.08
8.560e-06,0.08
8.640e-06,0.08
8.720e-06,0.078
8.800e-06,0.078
8.880e-06,0.078
8.960e-06,0.078
9.040e-06,0.076
9.120e-06,0.078
9.200e-06,0.076
9.280e-06,0.076
9.360e-06,0.076
9.440e-06,0.076
9.520e-06,0.076
9.600e-06,0.076
9.680e-06,0.076
9.760e-06,0.076
9.840e-06,0.076
9.920e-06,0.076
1.000e-05,0.076
1.008e-05,0.076
1.016e-05,0.076
1.024e-05,0.076
1.032e-05,0.074
1.040e-05,0.074
1.048e-05,0.074
1.056e-05,0.074
1.064e-05,0.074
1.072e-05,0.072
1.080e-05,0.072
1.088e-05,0.072
1.096e-05,0.07
1.104e-05,0.068
1.112e-05,0.066
1.120e-05,0.066
1.128e-05,0.064
1.136e-05,0.062
1.144e-05,0.06
1.152e-05,0.056
1.160e-05,0.052
1.168e-05,0.046
1.176e-05,0.04
1.184e-05,0.034
1.192e-05,0.026
1.200e-05,0.018
1.208e-05,0.008
1.216e-05,-0.002
1.224e-05,-0.01
1.232e-05,-0.018
1.240e-05,-0.024
1.248e-05,-0.03
1.256e-05,-0.034
1.264e-05,-0.038
1.272e-05,-0.04
1.280e-05,-0.036
1.288e-05,-0.038
1.296e-05,-0.032
1.304e-05,-0.028
1.312e-05,-0.024
1.320e-05,-0.018
1.328e-05,-0.01
1.336e-05,-0.004
1.344e-05,0.004
1.352e-05,0.01
1.360e-05,0.016
1.368e-05,0.02
1.376e-05,0.024
