QC/QC_lab/TEK00006.CSV

Model,TBS1102C
Firmware Version,v1.29.30

Point Format,Y
Horizontal Units,S
Horizontal Scale,1e-05
Sample Interval,8e-08
Filter Frequency,2e+08
Record Length,2000
Gating,0.0% to 100.0%
Probe Attenuation,1
Vertical Units,V
Vertical Offset,0
Vertical Scale,0.05
Label,
TIME,CH1
-8.000e-05,0.298
-7.992e-05,0.298
-7.984e-05,0.298
-7.976e-05,0.3
-7.968e-05,0.298
-7.960e-05,0.298
-7.952e-05,0.298
-7.944e-05,0.298
-7.936e-05,0.298
-7.928e-05,0.298
-7.920e-05,0.298
-7.912e-05,0.298
-7.904e-05,0.298
-7.896e-05,0.298
-7.888e-05,0.298
-7.880e-05,0.298
-7.872e-05,0.298
-7.864e-05,0.298
-7.856e-05,0.298
-7.848e-05,0.298
-7.840e-05,0.298
-7.832e-05,0.298
-7.824e-05,0.298
-7.816e-05,0.298
-7.808e-05,0.298
-7.800e-05,0.298
-7.792e-05,0.298
-7.784e-05,0.298
-7.776e-05,0.3
-7.768e-05,0.298
-7.760e-05,0.298
-7.752e-05,0.298
-7.744e-05,0.298
-7.736e-05,0.298
-7.728e-05,0.298
-7.720e-05,0.298
-7.712e-05,0.298
-7.704e-05,0.298
-7.696e-05,0.298
-7.688e-05,0.298
-7.680e-05,0.298
-7.672e-05,0.298
-7.664e-05,0.298
-7.656e-05,0.298
-7.648e-05,0.298
-7.640e-05,0.3
-7.632e-05,0.298
-7.624e-05,0.298
-7.616e-05,0.296
-7.608e-05,0.296
-7.600e-05,0.296
-7.592e-05,0.298
-7.584e-05,0.298
-7.576e-05,0.298
-7.568e-05,0.296
-7.560e-05,0.298
-7.552e-05,0.298
-7.544e-05,0.298
-7.536e-05,0.298
-7.528e-05,0.298
-7.520e-05,0.302
-7.512e-05,0.298
-7.504e-05,0.298
-7.496e-05,0.298
-7.488e-05,0.298
-7.480e-05,0.298
-7.472e-05,0.298
-7.464e-05,0.298
-7.456e-05,0.298
-7.448e-05,0.298
-7.440e-05,0.298
-7.432e-05,0.298
-7.424e-05,0.296
-7.416e-05,0.298
-7.408e-05,0.296
-7.400e-05,0.3
-7.392e-05,0.302
-7.384e-05,0.296
-7.376e-05,0.296
-7.368e-05,0.3
-7.360e-05,0.298
-7.352e-05,0.298
-7.344e-05,0.298
-7.336e-05,0.296
-7.328e-05,0.298
-7.320e-05,0.298
-7.312e-05,0.298
-7.304e-05,0.3
-7.296e-05,0.3
-7.288e-05,0.298
-7.280e-05,0.298
-7.272e-05,0.298
-7.264e-05,0.298
-7.256e-05,0.298
-7.248e-05,0.298
-7.240e-05,0.296
-7.232e-05,0.298
-7.224e-05,0.298
-7.216e-05,0.298
-7.208e-05,0.298
-7.200e-05,0.298
-7.192e-05,0.298
-7.184e-05,0.298
-7.176e-05,0.298
-7.168e-05,0.298
-7.160e-05,0.298
-7.152e-05,0.298
-7.144e-05,0.298
-7.136e-05,0.298
-7.128e-05,0.296
-7.120e-05,0.298
-7.112e-05,0.298
-7.104e-05,0.298
-7.096e-05,0.298
-7.088e-05,0.298
-7.080e-05,0.298
-7.072e-05,0.298
-7.064e-05,0.298
-7.056e-05,0.298
-7.048e-05,0.298
-7.040e-05,0.298
-7.032e-05,0.298
-7.024e-05,0.298
-7.016e-05,0.298
-7.008e-05,0.298
-7.000e-05,0.298
-6.992e-05,0.298
-6.984e-05,0.298
-6.976e-05,0.298
-6.968e-05,0.298
-6.960e-05,0.298
-6.952e-05,0.298
-6.944e-05,0.298
-6.936e-05,0.3
-6.928e-05,0.298
-6.920e-05,0.3
-6.912e-05,0.298
-6.904e-05,0.298
-6.896e-05,0.3
-6.888e-05,0.298
-6.880e-05,0.3
-6.872e-05,0.296
-6.864e-05,0.298
-6.856e-05,0.296
-6.848e-05,0.296
-6.840e-05,0.298
-6.832e-05,0.298
-6.824e-05,0.298
-6.816e-05,0.296
-6.808e-05,0.298
-6.800e-05,0.298
-6.792e-05,0.298
-6.784e-05,0.298
-6.776e-05,0.302
-6.768e-05,0.296
-6.760e-05,0.298
-6.752e-05,0.296
-6.744e-05,0.296
-6.736e-05,0.298
-6.728e-05,0.298
-6.720e-05,0.298
-6.712e-05,0.298
-6.704e-05,0.298
-6.696e-05,0.298
-6.688e-05,0.298
-6.680e-05,0.296
-6.672e-05,0.298
-6.664e-05,0.294
-6.656e-05,0.298
-6.648e-05,0.3
-6.640e-05,0.298
-6.632e-05,0.296
-6.624e-05,0.296
-6.616e-05,0.298
-6.608e-05,0.298
-6.600e-05,0.298
-6.592e-05,0.296
-6.584e-05,0.298
-6.576e-05,0.298
-6.568e-05,0.296
-6.560e-05,0.296
-6.552e-05,0.298
-6.544e-05,0.298
-6.536e-05,0.298
-6.528e-05,0.296
-6.520e-05,0.298
-6.512e-05,0.298
-6.504e-05,0.298
-6.496e-05,0.298
-6.488e-05,0.298
-6.480e-05,0.298
-6.472e-05,0.298
-6.464e-05,0.298
-6.456e-05,0.298
-6.448e-05,0.298
-6.440e-05,0.296
-6.432e-05,0.298
-6.424e-05,0.298
-6.416e-05,0.298
-6.408e-05,0.298
-6.400e-05,0.298
-6.392e-05,0.298
-6.384e-05,0.298
-6.376e-05,0.3
-6.368e-05,0.298
-6.360e-05,0.298
-6.352e-05,0.298
-6.344e-05,0.298
-6.336e-05,0.298
-6.328e-05,0.298
-6.320e-05,0.298
-6.312e-05,0.298
-6.304e-05,0.298
-6.296e-05,0.298
-6.288e-05,0.298
-6.280e-05,0.298
-6.272e-05,0.298
-6.264e-05,0.298
-6.256e-05,0.298
-6.248e-05,0.296
-6.240e-05,0.298
-6.232e-05,0.298
-6.224e-05,0.298
-6.216e-05,0.298
-6.208e-05,0.296
-6.200e-05,0.298
-6.192e-05,0.298
-6.184e-05,0.296
-6.176e-05,0.298
-6.168e-05,0.298
-6.160e-05,0.298
-6.152e-05,0.298
-6.144e-05,0.296
-6.136e-05,0.298
-6.128e-05,0.298
-6.120e-05,0.298
-6.112e-05,0.298
-6.104e-05,0.298
-6.096e-05,0.298
-6.088e-05,0.298
-6.080e-05,0.3
-6.072e-05,0.3
-6.064e-05,0.298
-6.056e-05,0.298
-6.048e-05,0.298
-6.040e-05,0.296
-6.032e-05,0.3
-6.024e-05,0.296
-6.016e-05,0.298
-6.008e-05,0.298
-6.000e-05,0.298
-5.992e-05,0.296
-5.984e-05,0.298
-5.976e-05,0.298
-5.968e-05,0.298
-5.960e-05,0.298
-5.952e-05,0.298
-5.944e-05,0.298
-5.936e-05,0.296
-5.928e-05,0.298
-5.920e-05,0.294
-5.912e-05,0.298
-5.904e-05,0.3
-5.896e-05,0.296
-5.888e-05,0.296
-5.880e-05,0.298
-5.872e-05,0.3
-5.864e-05,0.298
-5.856e-05,0.298
-5.848e-05,0.298
-5.840e-05,0.298
-5.832e-05,0.298
-5.824e-05,0.298
-5.816e-05,0.298
-5.808e-05,0.298
-5.800e-05,0.298
-5.792e-05,0.298
-5.784e-05,0.298
-5.776e-05,0.298
-5.768e-05,0.298
-5.760e-05,0.298
-5.752e-05,0.298
-5.744e-05,0.298
-5.736e-05,0.298
-5.728e-05,0.298
-5.720e-05,0.298
-5.712e-05,0.298
-5.704e-05,0.298
-5.696e-05,0.3
-5.688e-05,0.298
-5.680e-05,0.3
-5.672e-05,0.298
-5.664e-05,0.3
-5.656e-05,0.3
-5.648e-05,0.298
-5.640e-05,0.298
-5.632e-05,0.298
-5.624e-05,0.298
-5.616e-05,0.298
-5.608e-05,0.3
-5.600e-05,0.3
-5.592e-05,0.3
-5.584e-05,0.3
-5.576e-05,0.3
-5.568e-05,0.3
-5.560e-05,0.302
-5.552e-05,0.3
-5.544e-05,0.302
-5.536e-05,0.302
-5.528e-05,0.3
-5.520e-05,0.302
-5.512e-05,0.302
-5.504e-05,0.302
-5.496e-05,0.302
-5.488e-05,0.302
-5.480e-05,0.302
-5.472e-05,0.302
-5.464e-05,0.302
-5.456e-05,0.3
-5.448e-05,0.302
-5.440e-05,0.302
-5.432e-05,0.302
-5.424e-05,0.302
-5.416e-05,0.302
-5.408e-05,0.302
-5.400e-05,0.302
-5.392e-05,0.304
-5.384e-05,0.302
-5.376e-05,0.302
-5.368e-05,0.304
-5.360e-05,0.304
-5.352e-05,0.302
-5.344e-05,0.302
-5.336e-05,0.304
-5.328e-05,0.304
-5.320e-05,0.304
-5.312e-05,0.304
-5.304e-05,0.304
-5.296e-05,0.302
-5.288e-05,0.304
-5.280e-05,0.3
-5.272e-05,0.304
-5.264e-05,0.304
-5.256e-05,0.302
-5.248e-05,0.302
-5.240e-05,0.302
-5.232e-05,0.302
-5.224e-05,0.304
-5.216e-05,0.304
-5.208e-05,0.302
-5.200e-05,0.302
-5.192e-05,0.302
-5.184e-05,0.302
-5.176e-05,0.3
-5.168e-05,0.304
-5.160e-05,0.304
-5.152e-05,0.3
-5.144e-05,0.302
-5.136e-05,0.304
-5.128e-05,0.304
-5.120e-05,0.304
-5.112e-05,0.304
-5.104e-05,0.304
-5.096e-05,0.302
-5.088e-05,0.304
-5.080e-05,0.304
-5.072e-05,0.304
-5.064e-05,0.304
-5.056e-05,0.304
-5.048e-05,0.304
-5.040e-05,0.304
-5.032e-05,0.304
-5.024e-05,0.304
-5.016e-05,0.304
-5.008e-05,0.304
-5.000e-05,0.304
-4.992e-05,0.304
-4.984e-05,0.304
-4.976e-05,0.304
-4.968e-05,0.304
-4.960e-05,0.304
-4.952e-05,0.304
-4.944e-05,0.304
-4.936e-05,0.304
-4.928e-05,0.304
-4.920e-05,0.304
-4.912e-05,0.304
-4.904e-05,0.304
-4.896e-05,0.302
-4.888e-05,0.304
-4.880e-05,0.304
-4.872e-05,0.302
-4.864e-05,0.304
-4.856e-05,0.304
-4.848e-05,0.304
-4.840e-05,0.302
-4.832e-05,0.304
-4.824e-05,0.304
-4.816e-05,0.304
-4.808e-05,0.304
-4.800e-05,0.304
-4.792e-05,0.304
-4.784e-05,0.304
-4.776e-05,0.304
-4.768e-05,0.302
-4.760e-05,0.304
-4.752e-05,0.304
-4.744e-05,0.304
-4.736e-05,0.304
-4.728e-05,0.302
-4.720e-05,0.304
-4.712e-05,0.304
-4.704e-05,0.304
-4.696e-05,0.304
-4.688e-05,0.304
-4.680e-05,0.306
-4.672e-05,0.304
-4.664e-05,0.304
-4.656e-05,0.304
-4.648e-05,0.304
-4.640e-05,0.304
-4.632e-05,0.304
-4.624e-05,0.302
-4.616e-05,0.304
-4.608e-05,0.304
-4.600e-05,0.304
-4.592e-05,0.302
-4.584e-05,0.304
-4.576e-05,0.304
-4.568e-05,0.304
-4.560e-05,0.304
-4.552e-05,0.304
-4.544e-05,0.304
-4.536e-05,0.302
-4.528e-05,0.306
-4.520e-05,0.304
-4.512e-05,0.304
-4.504e-05,0.304
-4.496e-05,0.304
-4.488e-05,0.304
-4.480e-05,0.304
-4.472e-05,0.304
-4.464e-05,0.304
-4.456e-05,0.304
-4.448e-05,0.304
-4.440e-05,0.304
-4.432e-05,0.302
-4.424e-05,0.306
-4.416e-05,0.306
-4.408e-05,0.302
-4.400e-05,0.304
-4.392e-05,0.304
-4.384e-05,0.306
-4.376e-05,0.306
-4.368e-05,0.304
-4.360e-05,0.304
-4.352e-05,0.304
-4.344e-05,0.304
-4.336e-05,0.304
-4.328e-05,0.304
-4.320e-05,0.304
-4.312e-05,0.304
-4.304e-05,0.304
-4.296e-05,0.304
-4.288e-05,0.304
-4.280e-05,0.304
-4.272e-05,0.304
-4.264e-05,0.304
-4.256e-05,0.306
-4.248e-05,0.304
-4.240e-05,0.304
-4.232e-05,0.304
-4.224e-05,0.306
-4.216e-05,0.304
-4.208e-05,0.306
-4.200e-05,0.304
-4.192e-05,0.304
-4.184e-05,0.306
-4.176e-05,0.304
-4.168e-05,0.304
-4.160e-05,0.306
-4.152e-05,0.304
-4.144e-05,0.302
-4.136e-05,0.304
-4.128e-05,0.304
-4.120e-05,0.306
-4.112e-05,0.304
-4.104e-05,0.306
-4.096e-05,0.306
-4.088e-05,0.304
-4.080e-05,0.306
-4.072e-05,0.306
-4.064e-05,0.306
-4.056e-05,0.306
-4.048e-05,0.306
-4.040e-05,0.304
-4.032e-05,0.306
-4.024e-05,0.306
-4.016e-05,0.304
-4.008e-05,0.306
-4.000e-05,0.306
-3.992e-05,0.304
-3.984e-05,0.306
-3.976e-05,0.306
-3.968e-05,0.306
-3.960e-05,0.306
-3.952e-05,0.31
-3.944e-05,0.306
-3.936e-05,0.304
-3.928e-05,0.306
-3.920e-05,0.306
-3.912e-05,0.306
-3.904e-05,0.306
-3.896e-05,0.308
-3.888e-05,0.306
-3.880e-05,0.306
-3.872e-05,0.308
-3.864e-05,0.304
-3.856e-05,0.306
-3.848e-05,0.304
-3.840e-05,0.306
-3.832e-05,0.304
-3.824e-05,0.304
-3.816e-05,0.304
-3.808e-05,0.304
-3.800e-05,0.306
-3.792e-05,0.304
-3.784e-05,0.306
-3.776e-05,0.306
-3.768e-05,0.304
-3.760e-05,0.304
-3.752e-05,0.306
-3.744e-05,0.304
-3.736e-05,0.306
-3.728e-05,0.306
-3.720e-05,0.306
-3.712e-05,0.306
-3.704e-05,0.304
-3.696e-05,0.306
-3.688e-05,0.304
-3.680e-05,0.306
-3.672e-05,0.306
-3.664e-05,0.302
-3.656e-05,0.304
-3.648e-05,0.306
-3.640e-05,0.304
-3.632e-05,0.306
-3.624e-05,0.304
-3.616e-05,0.306
-3.608e-05,0.304
-3.600e-05,0.306
-3.592e-05,0.306
-3.584e-05,0.306
-3.576e-05,0.306
-3.568e-05,0.306
-3.560e-05,0.306
-3.552e-05,0.306
-3.544e-05,0.306
-3.536e-05,0.304
-3.528e-05,0.306
-3.520e-05,0.304
-3.512e-05,0.306
-3.504e-05,0.306
-3.496e-05,0.304
-3.488e-05,0.306
-3.480e-05,0.304
-3.472e-05,0.304
-3.464e-05,0.304
-3.456e-05,0.304
-3.448e-05,0.304
-3.440e-05,0.304
-3.432e-05,0.304
-3.424e-05,0.306
-3.416e-05,0.304
-3.408e-05,0.304
-3.400e-05,0.304
-3.392e-05,0.304
-3.384e-05,0.306
-3.376e-05,0.304
-3.368e-05,0.304
-3.360e-05,0.302
-3.352e-05,0.304
-3.344e-05,0.304
-3.336e-05,0.302
-3.328e-05,0.304
-3.320e-05,0.304
-3.312e-05,0.304
-3.304e-05,0.302
-3.296e-05,0.304
-3.288e-05,0.304
-3.280e-05,0.304
-3.272e-05,0.304
-3.264e-05,0.304
-3.256e-05,0.304
-3.248e-05,0.302
-3.240e-05,0.302
-3.232e-05,0.302
-3.224e-05,0.304
-3.216e-05,0.302
-3.208e-05,0.302
-3.200e-05,0.302
-3.192e-05,0.302
-3.184e-05,0.302
-3.176e-05,0.302
-3.168e-05,0.3
-3.160e-05,0.3
-3.152e-05,0.3
-3.144e-05,0.3
-3.136e-05,0.3
-3.128e-05,0.3
-3.120e-05,0.3
-3.112e-05,0.298
-3.104e-05,0.298
-3.096e-05,0.298
-3.088e-05,0.298
-3.080e-05,0.298
-3.072e-05,0.296
-3.064e-05,0.298
-3.056e-05,0.296
-3.048e-05,0.296
-3.040e-05,0.298
-3.032e-05,0.296
-3.024e-05,0.294
-3.016e-05,0.296
-3.008e-05,0.294
-3.000e-05,0.292
-2.992e-05,0.294
-2.984e-05,0.292
-2.976e-05,0.292
-2.968e-05,0.29
-2.960e-05,0.288
-2.952e-05,0.288
-2.944e-05,0.286
-2.936e-05,0.29
-2.928e-05,0.286
-2.920e-05,0.282
-2.912e-05,0.282
-2.904e-05,0.282
-2.896e-05,0.28
-2.888e-05,0.276
-2.880e-05,0.274
-2.872e-05,0.272
-2.864e-05,0.27
-2.856e-05,0.266
-2.848e-05,0.264
-2.840e-05,0.262
-2.832e-05,0.26
-2.824e-05,0.256
-2.816e-05,0.254
-2.808e-05,0.252
-2.800e-05,0.252
-2.792e-05,0.25
-2.784e-05,0.248
-2.776e-05,0.246
-2.768e-05,0.246
-2.760e-05,0.244
-2.752e-05,0.242
-2.744e-05,0.242
-2.736e-05,0.24
-2.728e-05,0.24
-2.720e-05,0.24
-2.712e-05,0.238
-2.704e-05,0.238
-2.696e-05,0.236
-2.688e-05,0.238
-2.680e-05,0.236
-2.672e-05,0.236
-2.664e-05,0.236
-2.656e-05,0.234
-2.648e-05,0.236
-2.640e-05,0.234
-2.632e-05,0.236
-2.624e-05,0.232
-2.616e-05,0.234
-2.608e-05,0.234
-2.600e-05,0.232
-2.592e-05,0.232
-2.584e-05,0.232
-2.576e-05,0.232
-2.568e-05,0.232
-2.560e-05,0.23
-2.552e-05,0.232
-2.544e-05,0.232
-2.536e-05,0.23
-2.528e-05,0.23
-2.520e-05,0.23
-2.512e-05,0.23
-2.504e-05,0.23
-2.496e-05,0.23
-2.488e-05,0.232
-2.480e-05,0.23
-2.472e-05,0.23
-2.464e-05,0.23
-2.456e-05,0.23
-2.448e-05,0.23
-2.440e-05,0.23
-2.432e-05,0.228
-2.424e-05,0.23
-2.416e-05,0.23
-2.408e-05,0.23
-2.400e-05,0.23
-2.392e-05,0.23
-2.384e-05,0.23
-2.376e-05,0.23
-2.368e-05,0.23
-2.360e-05,0.23
-2.352e-05,0.23
-2.344e-05,0.23
-2.336e-05,0.228
-2.328e-05,0.228
-2.320e-05,0.23
-2.312e-05,0.23
-2.304e-05,0.23
-2.296e-05,0.23
-2.288e-05,0.23
-2.280e-05,0.228
-2.272e-05,0.23
-2.264e-05,0.23
-2.256e-05,0.23
-2.248e-05,0.228
-2.240e-05,0.23
-2.232e-05,0.23
-2.224e-05,0.228
-2.216e-05,0.228
-2.208e-05,0.228
-2.200e-05,0.228
-2.192e-05,0.23
-2.184e-05,0.228
-2.176e-05,0.228
-2.168e-05,0.23
-2.160e-05,0.228
-2.152e-05,0.228
-2.144e-05,0.228
-2.136e-05,0.228
-2.128e-05,0.228
-2.120e-05,0.228
-2.112e-05,0.228
-2.104e-05,0.23
-2.096e-05,0.228
-2.088e-05,0.23
-2.080e-05,0.23
-2.072e-05,0.23
-2.064e-05,0.23
-2.056e-05,0.23
-2.048e-05,0.23
-2.040e-05,0.228
-2.032e-05,0.228
-2.024e-05,0.228
-2.016e-05,0.228
-2.008e-05,0.23
-2.000e-05,0.228
-1.992e-05,0.23
-1.984e-05,0.228
-1.976e-05,0.23
-1.968e-05,0.228
-1.960e-05,0.228
-1.952e-05,0.228
-1.944e-05,0.228
-1.936e-05,0.228
-1.928e-05,0.228
-1.920e-05,0.228
-1.912e-05,0.228
-1.904e-05,0.228
-1.896e-05,0.228
-1.888e-05,0.23
-1.880e-05,0.228
-1.872e-05,0.23
-1.864e-05,0.228
-1.856e-05,0.23
-1.848e-05,0.228
-1.840e-05,0.228
-1.832e-05,0.228
-1.824e-05,0.228
-1.816e-05,0.228
-1.808e-05,0.228
-1.800e-05,0.228
-1.792e-05,0.228
-1.784e-05,0.228
-1.776e-05,0.228
-1.768e-05,0.228
-1.760e-05,0.228
-1.752e-05,0.228
-1.744e-05,0.228
-1.736e-05,0.228
-1.728e-05,0.228
-1.720e-05,0.228
-1.712e-05,0.228
-1.704e-05,0.228
-1.696e-05,0.228
-1.688e-05,0.228
-1.680e-05,0.23
-1.672e-05,0.228
-1.664e-05,0.228
-1.656e-05,0.228
-1.648e-05,0.228
-1.640e-05,0.228
-1.632e-05,0.228
-1.624e-05,0.228
-1.616e-05,0.228
-1.608e-05,0.228
-1.600e-05,0.228
-1.592e-05,0.228
-1.584e-05,0.228
-1.576e-05,0.228
-1.568e-05,0.226
-1.560e-05,0.228
-1.552e-05,0.228
-1.544e-05,0.226
-1.536e-05,0.228
-1.528e-05,0.228
-1.520e-05,0.228
-1.512e-05,0.228
-1.504e-05,0.228
-1.496e-05,0.228
-1.488e-05,0.228
-1.480e-05,0.228
-1.472e-05,0.226
-1.464e-05,0.228
-1.456e-05,0.228
-1.448e-05,0.228
-1.440e-05,0.226
-1.432e-05,0.228
-1.424e-05,0.23
-1.416e-05,0.226
-1.408e-05,0.228
-1.400e-05,0.226
-1.392e-05,0.228
-1.384e-05,0.228
-1.376e-05,0.226
-1.368e-05,0.228
-1.360e-05,0.228
-1.352e-05,0.228
-1.344e-05,0.228
-1.336e-05,0.23
-1.328e-05,0.228
-1.320e-05,0.228
-1.312e-05,0.228
-1.304e-05,0.228
-1.296e-05,0.23
-1.288e-05,0.228
-1.280e-05,0.228
-1.272e-05,0.226
-1.264e-05,0.228
-1.256e-05,0.228
-1.248e-05,0.23
-1.240e-05,0.228
-1.232e-05,0.228
-1.224e-05,0.226
-1.216e-05,0.228
-1.208e-05,0.228
-1.200e-05,0.228
-1.192e-05,0.228
-1.184e-05,0.228
-1.176e-05,0.228
-1.168e-05,0.228
-1.160e-05,0.228
-1.152e-05,0.228
-1.144e-05,0.228
-1.136e-05,0.228
-1.128e-05,0.228
-1.120e-05,0.228
-1.112e-05,0.228
-1.104e-05,0.228
-1.096e-05,0.228
-1.088e-05,0.228
-1.080e-05,0.228
-1.072e-05,0.228
-1.064e-05,0.228
-1.056e-05,0.228
-1.048e-05,0.228
-1.040e-05,0.226
-1.032e-05,0.23
-1.024e-05,0.226
-1.016e-05,0.228
-1.008e-05,0.226
-1.000e-05,0.228
-9.920e-06,0.226
-9.840e-06,0.226
-9.760e-06,0.228
-9.680e-06,0.226
-9.600e-06,0.228
-9.520e-06,0.228
-9.440e-06,0.226
-9.360e-06,0.226
-9.280e-06,0.228
-9.200e-06,0.226
-9.120e-06,0.228
-9.040e-06,0.226
-8.960e-06,0.226
-8.880e-06,0.226
-8.800e-06,0.226
-8.720e-06,0.228
-8.640e-06,0.226
-8.560e-06,0.228
-8.480e-06,0.226
-8.400e-06,0.226
-8.320e-06,0.226
-8.240e-06,0.226
-8.160e-06,0.228
-8.080e-06,0.226
-8.000e-06,0.228
-7.920e-06,0.226
-7.840e-06,0.228
-7.760e-06,0.228
-7.680e-06,0.228
-7.600e-06,0.228
-7.520e-06,0.226
-7.440e-06,0.226
-7.360e-06,0.226
-7.280e-06,0.226
-7.200e-06,0.226
-7.120e-06,0.226
-7.040e-06,0.224
-6.960e-06,0.228
-6.880e-06,0.228
-6.800e-06,0.226
-6.720e-06,0.224
-6.640e-06,0.226
-6.560e-06,0.226
-6.480e-06,0.228
-6.400e-06,0.228
-6.320e-06,0.226
-6.240e-06,0.226
-6.160e-06,0.226
-6.080e-06,0.226
-6.000e-06,0.226
-5.920e-06,0.226
-5.840e-06,0.226
-5.760e-06,0.226
-5.680e-06,0.226
-5.600e-06,0.226
-5.520e-06,0.226
-5.440e-06,0.224
-5.360e-06,0.226
-5.280e-06,0.224
-5.200e-06,0.228
-5.120e-06,0.226
-5.040e-06,0.226
-4.960e-06,0.228
-4.880e-06,0.226
-4.800e-06,0.226
-4.720e-06,0.228
-4.640e-06,0.226
-4.560e-06,0.224
-4.480e-06,0.226
-4.400e-06,0.226
-4.320e-06,0.226
-4.240e-06,0.226
-4.160e-06,0.226
-4.080e-06,0.226
-4.000e-06,0.226
-3.920e-06,0.226
-3.840e-06,0.226
-3.760e-06,0.226
-3.680e-06,0.226
-3.600e-06,0.224
-3.520e-06,0.224
-3.440e-06,0.224
-3.360e-06,0.226
-3.280e-06,0.226
-3.200e-06,0.224
-3.120e-06,0.226
-3.040e-06,0.226
-2.960e-06,0.226
-2.880e-06,0.224
-2.800e-06,0.224
-2.720e-06,0.224
-2.640e-06,0.224
-2.560e-06,0.224
-2.480e-06,0.224
-2.400e-06,0.224
-2.320e-06,0.224
-2.240e-06,0.224
-2.160e-06,0.224
-2.080e-06,0.224
-2.000e-06,0.224
-1.920e-06,0.226
-1.840e-06,0.224
-1.760e-06,0.224
-1.680e-06,0.224
-1.600e-06,0.224
-1.520e-06,0.224
-1.440e-06,0.224
-1.360e-06,0.224
-1.280e-06,0.224
-1.200e-06,0.226
-1.120e-06,0.224
-1.040e-06,0.224
-9.600e-07,0.224
-8.800e-07,0.222
-8.000e-07,0.22
-7.200e-07,0.224
-6.400e-07,0.222
-5.600e-07,0.224
-4.800e-07,0.222
-4.000e-07,0.222
-3.200e-07,0.214
-2.400e-07,0.204
-1.600e-07,0.186
-8.000e-08,0.166
-6.924e-19,0.14
8.000e-08,0.124
1.600e-07,0.1
2.400e-07,0.08
3.200e-07,0.062
4.000e-07,0.042
4.800e-07,0.03
5.600e-07,0.012
6.400e-07,-0.006
7.200e-07,-0.022
8.000e-07,-0.036
8.800e-07,-0.052
9.600e-07,-0.064
1.040e-06,-0.064
1.120e-06,-0.064
1.200e-06,-0.064
1.280e-06,-0.064
1.360e-06,-0.064
1.440e-06,-0.064
1.520e-06,-0.064
1.600e-06,-0.062
1.680e-06,-0.052
1.760e-06,-0.038
1.840e-06,-0.024
1.920e-06,-0.012
2.000e-06,-2.38419e-09
2.080e-06,0.014
2.160e-06,0.026
2.240e-06,0.036
2.320e-06,0.048
2.400e-06,0.056
2.480e-06,0.06
2.560e-06,0.064
2.640e-06,0.066
2.720e-06,0.064
2.800e-06,0.06
2.880e-06,0.052
2.960e-06,0.044
3.040e-06,0.034
3.120e-06,0.026
3.200e-06,0.014
3.280e-06,0.004
3.360e-06,-0.008
3.440e-06,-0.018
3.520e-06,-0.026
3.600e-06,-0.034
3.680e-06,-0.042
3.760e-06,-0.046
3.840e-06,-0.046
3.920e-06,-0.048
4.000e-06,-0.046
4.080e-06,-0.044
4.160e-06,-0.04
4.240e-06,-0.032
4.320e-06,-0.026
4.400e-06,-0.018
4.480e-06,-0.012
4.560e-06,-0.002
4.640e-06,0.004
4.720e-06,0.012
4.800e-06,0.02
4.880e-06,0.026
4.960e-06,0.03
5.040e-06,0.036
5.120e-06,0.038
5.200e-06,0.038
5.280e-06,0.038
5.360e-06,0.036
5.440e-06,0.032
5.520e-06,0.028
5.600e-06,0.022
5.680e-06,0.014
5.760e-06,0.008
5.840e-06,0.002
5.920e-06,-0.006
6.000e-06,-0.012
6.080e-06,-0.018
6.160e-06,-0.022
6.240e-06,-0.026
6.320e-06,-0.028
6.400e-06,-0.03
6.480e-06,-0.03
6.560e-06,-0.026
6.640e-06,-0.028
6.720e-06,-0.02
6.800e-06,-0.018
6.880e-06,-0.01
6.960e-06,-0.01
7.040e-06,-0.002
7.120e-06,0.002
7.200e-06,0.008
7.280e-06,0.01
7.360e-06,0.014
7.440e-06,0.016
7.520e-06,0.022
7.600e-06,0.022
7.680e-06,0.02
7.760e-06,0.018
7.840e-06,0.02
7.920e-06,0.024
8.000e-06,0.016
8.080e-06,0.012
8.160e-06,0.012
8.240e-06,0.008
8.320e-06,0.004
8.400e-06,-2.38419e-09
8.480e-06,-0.006
8.560e-06,-0.008
8.640e-06,-0.012
8.720e-06,-0.014
8.800e-06,-0.016
8.880e-06,-0.02
8.960e-06,-0.02
9.040e-06,-0.018
9.120e-06,-0.016
9.200e-06,-0.014
9.280e-06,-0.012
9.360e-06,-0.008
9.440e-06,-0.006
9.520e-06,-0.002
9.600e-06,0.002
9.680e-06,0.006
9.760e-06,0.008
9.840e-06,0.012
9.920e-06,0.016
1.000e-05,0.016
1.008e-05,0.016
1.016e-05,0.016
1.024e-05,0.014
1.032e-05,0.014
1.040e-05,0.012
1.048e-05,0.01
1.056e-05,0.008
1.064e-05,0.006
1.072e-05,0.002
1.080e-05,-2.38419e-09
1.088e-05,-0.002
1.096e-05,-0.004
1.104e-05,-0.008
1.112e-05,-0.008
1.120e-05,-0.01
1.128e-05,-0.01
1.136e-05,-0.01
1.144e-05,-0.008
1.152e-05,-0.008
1.160e-05,-0.008
1.168e-05,-0.006
1.176e-05,-0.006
1.184e-05,-0.004
1.192e-05,-0.002
1.200e-05,-0.002
1.208e-05,0.002
1.216e-05,0.002
1.224e-05,0.004
1.232e-05,0.004
1.240e-05,0.006
1.248e-05,0.008
1.256e-05,0.006
1.264e-05,0.008
1.272e-05,0.006
1.280e-05,0.008
1.288e-05,0.008
1.296e-05,0.008
1.304e-05,0.008
1.312e-05,0.006
1.320e-05,0.006
1.328e-05,0.004
1.336e-05,0.002
1.344e-05,-2.38419e-09
1.352e-05,-0.002
1.360e-05,-0.004
1.368e-05,-0.004
1.376e-05,-0.006
1.384e-05,-0.006
